EESchema Schematic File Version 2
LIBS:power
LIBS:device
LIBS:switches
LIBS:relays
LIBS:motors
LIBS:transistors
LIBS:conn
LIBS:linear
LIBS:regul
LIBS:74xx
LIBS:cmos4000
LIBS:adc-dac
LIBS:memory
LIBS:xilinx
LIBS:microcontrollers
LIBS:dsp
LIBS:microchip
LIBS:analog_switches
LIBS:motorola
LIBS:texas
LIBS:intel
LIBS:audio
LIBS:interface
LIBS:digital-audio
LIBS:philips
LIBS:display
LIBS:cypress
LIBS:siliconi
LIBS:opto
LIBS:atmel
LIBS:contrib
LIBS:valves
LIBS:my_library
LIBS:PIC_Platine-cache
EELAYER 25 0
EELAYER END
$Descr A3 16535 11693
encoding utf-8
Sheet 1 1
Title ""
Date ""
Rev ""
Comp ""
Comment1 ""
Comment2 ""
Comment3 ""
Comment4 ""
$EndDescr
$Comp
L dsPIC33EP512MU810 U2
U 1 1 5AA14081
P 8550 5950
F 0 "U2" H 6700 7950 60  0000 C CNN
F 1 "dsPIC33EP512MU810" H 8700 6000 60  0000 C CNN
F 2 "Housings_QFP:TQFP-100_14x14mm_Pitch0.5mm" H 6650 7150 60  0001 C CNN
F 3 "" H 6650 7150 60  0001 C CNN
	1    8550 5950
	1    0    0    -1  
$EndComp
$Comp
L Conn_01x06 J8
U 1 1 5AA14AAB
P 1800 9700
F 0 "J8" H 1800 10000 50  0000 C CNN
F 1 "PICkit3" H 1800 9300 50  0000 C CNN
F 2 "Pin_Headers:Pin_Header_Straight_1x06_Pitch2.54mm" H 1800 9700 50  0001 C CNN
F 3 "" H 1800 9700 50  0001 C CNN
	1    1800 9700
	1    0    0    -1  
$EndComp
$Comp
L GND #PWR01
U 1 1 5AA14B67
P 1500 10100
F 0 "#PWR01" H 1500 9850 50  0001 C CNN
F 1 "GND" H 1500 9950 50  0000 C CNN
F 2 "" H 1500 10100 50  0001 C CNN
F 3 "" H 1500 10100 50  0001 C CNN
	1    1500 10100
	1    0    0    -1  
$EndComp
$Comp
L R R4
U 1 1 5AA14B81
P 1350 9300
F 0 "R4" V 1430 9300 50  0000 C CNN
F 1 "10k" V 1350 9300 50  0000 C CNN
F 2 "Resistors_SMD:R_0805_HandSoldering" V 1280 9300 50  0001 C CNN
F 3 "" H 1350 9300 50  0001 C CNN
	1    1350 9300
	1    0    0    -1  
$EndComp
$Comp
L R R1
U 1 1 5AA1522F
P 1150 9500
F 0 "R1" V 1230 9500 50  0000 C CNN
F 1 "100" V 1150 9500 50  0000 C CNN
F 2 "Resistors_SMD:R_0805_HandSoldering" V 1080 9500 50  0001 C CNN
F 3 "" H 1150 9500 50  0001 C CNN
	1    1150 9500
	0    1    1    0   
$EndComp
$Comp
L R R2
U 1 1 5AA15273
P 1150 9700
F 0 "R2" V 1230 9700 50  0000 C CNN
F 1 "100" V 1150 9700 50  0000 C CNN
F 2 "Resistors_SMD:R_0805_HandSoldering" V 1080 9700 50  0001 C CNN
F 3 "" H 1150 9700 50  0001 C CNN
	1    1150 9700
	0    1    1    0   
$EndComp
$Comp
L R R3
U 1 1 5AA152C2
P 1150 9900
F 0 "R3" V 1230 9900 50  0000 C CNN
F 1 "100" V 1150 9900 50  0000 C CNN
F 2 "Resistors_SMD:R_0805_HandSoldering" V 1080 9900 50  0001 C CNN
F 3 "" H 1150 9900 50  0001 C CNN
	1    1150 9900
	0    1    1    0   
$EndComp
NoConn ~ 1600 10000
Text Label 700  9500 0    60   ~ 0
nMCLR
Text Label 700  9700 0    60   ~ 0
PGED
Text Label 700  9900 0    60   ~ 0
PGEC
Text Label 6050 5950 0    60   ~ 0
nMCLR
Text Label 6050 7150 0    60   ~ 0
PGED
Text Label 6050 7050 0    60   ~ 0
PGEC
$Comp
L TSR1-2433 U1
U 1 1 5AA16648
P 1750 950
F 0 "U1" H 1500 1150 60  0000 C CNN
F 1 "TSR1-2433" H 2050 700 60  0000 C CNN
F 2 "Housings_SIP:SIP3_11.6x8.5mm" V 1750 950 60  0001 C CNN
F 3 "" H 1750 950 60  0001 C CNN
	1    1750 950 
	1    0    0    -1  
$EndComp
$Comp
L +3.3V #PWR02
U 1 1 5AA16735
P 2250 900
F 0 "#PWR02" H 2250 750 50  0001 C CNN
F 1 "+3.3V" H 2250 1040 50  0000 C CNN
F 2 "" H 2250 900 50  0001 C CNN
F 3 "" H 2250 900 50  0001 C CNN
	1    2250 900 
	1    0    0    -1  
$EndComp
$Comp
L GND #PWR03
U 1 1 5AA16967
P 1750 1350
F 0 "#PWR03" H 1750 1100 50  0001 C CNN
F 1 "GND" H 1750 1200 50  0000 C CNN
F 2 "" H 1750 1350 50  0001 C CNN
F 3 "" H 1750 1350 50  0001 C CNN
	1    1750 1350
	1    0    0    -1  
$EndComp
$Comp
L VCC #PWR04
U 1 1 5AA169E2
P 850 900
F 0 "#PWR04" H 850 750 50  0001 C CNN
F 1 "VCC" H 850 1050 50  0000 C CNN
F 2 "" H 850 900 50  0001 C CNN
F 3 "" H 850 900 50  0001 C CNN
	1    850  900 
	1    0    0    -1  
$EndComp
$Comp
L L L1
U 1 1 5AA16A46
P 1050 950
F 0 "L1" V 1000 950 50  0000 C CNN
F 1 "L" V 1125 950 50  0000 C CNN
F 2 "Inductors_THT:L_Radial_D8.7mm_P5.00mm_Fastron_07HCP" H 1050 950 50  0001 C CNN
F 3 "" H 1050 950 50  0001 C CNN
	1    1050 950 
	0    -1   -1   0   
$EndComp
$Comp
L CP1 C4
U 1 1 5AA16B59
P 1250 1150
F 0 "C4" H 1275 1250 50  0000 L CNN
F 1 "4.7uF" H 1275 1050 50  0000 L CNN
F 2 "Capacitors_SMD:CP_Elec_5x5.3" H 1250 1150 50  0001 C CNN
F 3 "" H 1250 1150 50  0001 C CNN
	1    1250 1150
	1    0    0    -1  
$EndComp
$Comp
L CP1 C2
U 1 1 5AA16BA3
P 850 1150
F 0 "C2" H 875 1250 50  0000 L CNN
F 1 "4.7uF" H 875 1050 50  0000 L CNN
F 2 "Capacitors_SMD:CP_Elec_5x5.3" H 850 1150 50  0001 C CNN
F 3 "" H 850 1150 50  0001 C CNN
	1    850  1150
	1    0    0    -1  
$EndComp
$Comp
L GND #PWR05
U 1 1 5AA16D46
P 850 1350
F 0 "#PWR05" H 850 1100 50  0001 C CNN
F 1 "GND" H 850 1200 50  0000 C CNN
F 2 "" H 850 1350 50  0001 C CNN
F 3 "" H 850 1350 50  0001 C CNN
	1    850  1350
	1    0    0    -1  
$EndComp
$Comp
L GND #PWR06
U 1 1 5AA16D6F
P 1250 1350
F 0 "#PWR06" H 1250 1100 50  0001 C CNN
F 1 "GND" H 1250 1200 50  0000 C CNN
F 2 "" H 1250 1350 50  0001 C CNN
F 3 "" H 1250 1350 50  0001 C CNN
	1    1250 1350
	1    0    0    -1  
$EndComp
Text Label 8900 3600 3    60   ~ 0
VCAP
Text Label 3300 3200 3    60   ~ 0
VCAP
$Comp
L C C10
U 1 1 5AA174B3
P 3300 3650
F 0 "C10" H 3325 3750 50  0000 L CNN
F 1 "10uF" H 3325 3550 50  0000 L CNN
F 2 "Capacitors_SMD:C_0805_HandSoldering" H 3338 3500 50  0001 C CNN
F 3 "" H 3300 3650 50  0001 C CNN
	1    3300 3650
	1    0    0    -1  
$EndComp
$Comp
L GND #PWR07
U 1 1 5AA176D2
P 3300 3850
F 0 "#PWR07" H 3300 3600 50  0001 C CNN
F 1 "GND" H 3300 3700 50  0000 C CNN
F 2 "" H 3300 3850 50  0001 C CNN
F 3 "" H 3300 3850 50  0001 C CNN
	1    3300 3850
	1    0    0    -1  
$EndComp
NoConn ~ 10800 6850
NoConn ~ 10800 6750
$Comp
L C C9
U 1 1 5AA19E70
P 3000 3650
F 0 "C9" H 3025 3750 50  0000 L CNN
F 1 "100nF" H 3025 3550 50  0000 L CNN
F 2 "Capacitors_SMD:C_0805_HandSoldering" H 3038 3500 50  0001 C CNN
F 3 "" H 3000 3650 50  0001 C CNN
	1    3000 3650
	1    0    0    -1  
$EndComp
$Comp
L C C8
U 1 1 5AA1A6DB
P 2700 3650
F 0 "C8" H 2725 3750 50  0000 L CNN
F 1 "100nF" H 2725 3550 50  0000 L CNN
F 2 "Capacitors_SMD:C_0805_HandSoldering" H 2738 3500 50  0001 C CNN
F 3 "" H 2700 3650 50  0001 C CNN
	1    2700 3650
	1    0    0    -1  
$EndComp
$Comp
L C C7
U 1 1 5AA1A718
P 2400 3650
F 0 "C7" H 2425 3750 50  0000 L CNN
F 1 "100nF" H 2425 3550 50  0000 L CNN
F 2 "Capacitors_SMD:C_0805_HandSoldering" H 2438 3500 50  0001 C CNN
F 3 "" H 2400 3650 50  0001 C CNN
	1    2400 3650
	1    0    0    -1  
$EndComp
$Comp
L C C6
U 1 1 5AA1A75A
P 2100 3650
F 0 "C6" H 2125 3750 50  0000 L CNN
F 1 "100nF" H 2125 3550 50  0000 L CNN
F 2 "Capacitors_SMD:C_0805_HandSoldering" H 2138 3500 50  0001 C CNN
F 3 "" H 2100 3650 50  0001 C CNN
	1    2100 3650
	1    0    0    -1  
$EndComp
$Comp
L C C5
U 1 1 5AA1A91A
P 1800 3650
F 0 "C5" H 1825 3750 50  0000 L CNN
F 1 "100nF" H 1825 3550 50  0000 L CNN
F 2 "Capacitors_SMD:C_0805_HandSoldering" H 1838 3500 50  0001 C CNN
F 3 "" H 1800 3650 50  0001 C CNN
	1    1800 3650
	1    0    0    -1  
$EndComp
$Comp
L C C3
U 1 1 5AA1A920
P 1500 3650
F 0 "C3" H 1525 3750 50  0000 L CNN
F 1 "100nF" H 1525 3550 50  0000 L CNN
F 2 "Capacitors_SMD:C_0805_HandSoldering" H 1538 3500 50  0001 C CNN
F 3 "" H 1500 3650 50  0001 C CNN
	1    1500 3650
	1    0    0    -1  
$EndComp
$Comp
L C C1
U 1 1 5AA1A926
P 1200 3650
F 0 "C1" H 1225 3750 50  0000 L CNN
F 1 "100nF" H 1225 3550 50  0000 L CNN
F 2 "Capacitors_SMD:C_0805_HandSoldering" H 1238 3500 50  0001 C CNN
F 3 "" H 1200 3650 50  0001 C CNN
	1    1200 3650
	1    0    0    -1  
$EndComp
$Comp
L +3.3V #PWR08
U 1 1 5AA1AA34
P 1200 3400
F 0 "#PWR08" H 1200 3250 50  0001 C CNN
F 1 "+3.3V" V 1200 3650 50  0000 C CNN
F 2 "" H 1200 3400 50  0001 C CNN
F 3 "" H 1200 3400 50  0001 C CNN
	1    1200 3400
	1    0    0    -1  
$EndComp
$Comp
L GND #PWR09
U 1 1 5AA1AAF3
P 1200 3850
F 0 "#PWR09" H 1200 3600 50  0001 C CNN
F 1 "GND" H 1200 3700 50  0000 C CNN
F 2 "" H 1200 3850 50  0001 C CNN
F 3 "" H 1200 3850 50  0001 C CNN
	1    1200 3850
	1    0    0    -1  
$EndComp
$Comp
L GND #PWR010
U 1 1 5AA1AE31
P 1500 3850
F 0 "#PWR010" H 1500 3600 50  0001 C CNN
F 1 "GND" H 1500 3700 50  0000 C CNN
F 2 "" H 1500 3850 50  0001 C CNN
F 3 "" H 1500 3850 50  0001 C CNN
	1    1500 3850
	1    0    0    -1  
$EndComp
$Comp
L GND #PWR011
U 1 1 5AA1AE72
P 1800 3850
F 0 "#PWR011" H 1800 3600 50  0001 C CNN
F 1 "GND" H 1800 3700 50  0000 C CNN
F 2 "" H 1800 3850 50  0001 C CNN
F 3 "" H 1800 3850 50  0001 C CNN
	1    1800 3850
	1    0    0    -1  
$EndComp
$Comp
L GND #PWR012
U 1 1 5AA1AEB3
P 2100 3850
F 0 "#PWR012" H 2100 3600 50  0001 C CNN
F 1 "GND" H 2100 3700 50  0000 C CNN
F 2 "" H 2100 3850 50  0001 C CNN
F 3 "" H 2100 3850 50  0001 C CNN
	1    2100 3850
	1    0    0    -1  
$EndComp
$Comp
L GND #PWR013
U 1 1 5AA1AF06
P 2400 3850
F 0 "#PWR013" H 2400 3600 50  0001 C CNN
F 1 "GND" H 2400 3700 50  0000 C CNN
F 2 "" H 2400 3850 50  0001 C CNN
F 3 "" H 2400 3850 50  0001 C CNN
	1    2400 3850
	1    0    0    -1  
$EndComp
$Comp
L GND #PWR014
U 1 1 5AA1AF47
P 2700 3850
F 0 "#PWR014" H 2700 3600 50  0001 C CNN
F 1 "GND" H 2700 3700 50  0000 C CNN
F 2 "" H 2700 3850 50  0001 C CNN
F 3 "" H 2700 3850 50  0001 C CNN
	1    2700 3850
	1    0    0    -1  
$EndComp
$Comp
L GND #PWR015
U 1 1 5AA1B1CB
P 3000 3850
F 0 "#PWR015" H 3000 3600 50  0001 C CNN
F 1 "GND" H 3000 3700 50  0000 C CNN
F 2 "" H 3000 3850 50  0001 C CNN
F 3 "" H 3000 3850 50  0001 C CNN
	1    3000 3850
	1    0    0    -1  
$EndComp
$Comp
L Conn_01x26 J7
U 1 1 5AA1C460
P 11750 5950
F 0 "J7" H 11750 7250 50  0000 C CNN
F 1 "Conn_01x26" H 11750 4550 50  0000 C CNN
F 2 "Pin_Headers:Pin_Header_Straight_2x13_Pitch2.54mm" H 11750 5950 50  0001 C CNN
F 3 "" H 11750 5950 50  0001 C CNN
	1    11750 5950
	1    0    0    1   
$EndComp
$Comp
L +3.3V #PWR016
U 1 1 5AA1C5A7
P 10900 4600
F 0 "#PWR016" H 10900 4450 50  0001 C CNN
F 1 "+3.3V" V 10900 4850 50  0000 C CNN
F 2 "" H 10900 4600 50  0001 C CNN
F 3 "" H 10900 4600 50  0001 C CNN
	1    10900 4600
	1    0    0    -1  
$EndComp
$Comp
L GND #PWR017
U 1 1 5AA1C976
P 11050 4550
F 0 "#PWR017" H 11050 4300 50  0001 C CNN
F 1 "GND" V 11050 4350 50  0000 C CNN
F 2 "" H 11050 4550 50  0001 C CNN
F 3 "" H 11050 4550 50  0001 C CNN
	1    11050 4550
	-1   0    0    1   
$EndComp
$Comp
L Conn_01x26 J6
U 1 1 5AA1D000
P 11400 5950
F 0 "J6" H 11400 7250 50  0000 C CNN
F 1 "Conn_01x26" H 11400 4550 50  0000 C CNN
F 2 "Pin_Headers:Pin_Header_Straight_2x13_Pitch2.54mm" H 11400 5950 50  0001 C CNN
F 3 "" H 11400 5950 50  0001 C CNN
	1    11400 5950
	1    0    0    1   
$EndComp
$Comp
L Conn_01x26 J5
U 1 1 5AA1F17F
P 8600 8700
F 0 "J5" H 8600 10000 50  0000 C CNN
F 1 "Conn_01x26" H 8600 7300 50  0000 C CNN
F 2 "Pin_Headers:Pin_Header_Straight_2x13_Pitch2.54mm" H 8600 8700 50  0001 C CNN
F 3 "" H 8600 8700 50  0001 C CNN
	1    8600 8700
	0    -1   1    0   
$EndComp
$Comp
L +3.3V #PWR018
U 1 1 5AA1F585
P 7300 8200
F 0 "#PWR018" H 7300 8050 50  0001 C CNN
F 1 "+3.3V" V 7300 8450 50  0000 C CNN
F 2 "" H 7300 8200 50  0001 C CNN
F 3 "" H 7300 8200 50  0001 C CNN
	1    7300 8200
	0    -1   -1   0   
$EndComp
$Comp
L GND #PWR019
U 1 1 5AA1F5CF
P 7300 8300
F 0 "#PWR019" H 7300 8050 50  0001 C CNN
F 1 "GND" V 7300 8100 50  0000 C CNN
F 2 "" H 7300 8300 50  0001 C CNN
F 3 "" H 7300 8300 50  0001 C CNN
	1    7300 8300
	0    1    1    0   
$EndComp
$Comp
L Conn_01x26 J4
U 1 1 5AA21707
P 8600 3250
F 0 "J4" H 8600 4550 50  0000 C CNN
F 1 "Conn_01x26" H 8600 1850 50  0000 C CNN
F 2 "Pin_Headers:Pin_Header_Straight_2x13_Pitch2.54mm" H 8600 3250 50  0001 C CNN
F 3 "" H 8600 3250 50  0001 C CNN
	1    8600 3250
	0    1    -1   0   
$EndComp
$Comp
L +3.3V #PWR020
U 1 1 5AA23A4E
P 6350 4650
F 0 "#PWR020" H 6350 4500 50  0001 C CNN
F 1 "+3.3V" V 6350 4900 50  0000 C CNN
F 2 "" H 6350 4650 50  0001 C CNN
F 3 "" H 6350 4650 50  0001 C CNN
	1    6350 4650
	1    0    0    -1  
$EndComp
$Comp
L GND #PWR021
U 1 1 5AA23AB5
P 6200 4650
F 0 "#PWR021" H 6200 4400 50  0001 C CNN
F 1 "GND" V 6200 4450 50  0000 C CNN
F 2 "" H 6200 4650 50  0001 C CNN
F 3 "" H 6200 4650 50  0001 C CNN
	1    6200 4650
	-1   0    0    1   
$EndComp
$Comp
L Conn_01x26 J1
U 1 1 5AA26940
P 5400 5950
F 0 "J1" H 5400 7250 50  0000 C CNN
F 1 "Conn_01x26" H 5400 4550 50  0000 C CNN
F 2 "Pin_Headers:Pin_Header_Straight_2x13_Pitch2.54mm" H 5400 5950 50  0001 C CNN
F 3 "" H 5400 5950 50  0001 C CNN
	1    5400 5950
	-1   0    0    -1  
$EndComp
$Comp
L +3.3V #PWR022
U 1 1 5AA2A3CC
P 7200 3750
F 0 "#PWR022" H 7200 3600 50  0001 C CNN
F 1 "+3.3V" V 7200 4000 50  0000 C CNN
F 2 "" H 7200 3750 50  0001 C CNN
F 3 "" H 7200 3750 50  0001 C CNN
	1    7200 3750
	0    -1   -1   0   
$EndComp
$Comp
L Conn_01x26 J3
U 1 1 5AA2A9F6
P 8600 2900
F 0 "J3" H 8600 4200 50  0000 C CNN
F 1 "Conn_01x26" H 8600 1500 50  0000 C CNN
F 2 "Pin_Headers:Pin_Header_Straight_2x13_Pitch2.54mm" H 8600 2900 50  0001 C CNN
F 3 "" H 8600 2900 50  0001 C CNN
	1    8600 2900
	0    1    -1   0   
$EndComp
$Comp
L GND #PWR023
U 1 1 5AA2FF3F
P 7200 3550
F 0 "#PWR023" H 7200 3300 50  0001 C CNN
F 1 "GND" V 7200 3350 50  0000 C CNN
F 2 "" H 7200 3550 50  0001 C CNN
F 3 "" H 7200 3550 50  0001 C CNN
	1    7200 3550
	0    1    1    0   
$EndComp
$Comp
L Conn_01x26 J9
U 1 1 5AA19C2A
P 8600 9050
F 0 "J9" H 8600 10350 50  0000 C CNN
F 1 "Conn_01x26" H 8600 7650 50  0000 C CNN
F 2 "Pin_Headers:Pin_Header_Straight_2x13_Pitch2.54mm" H 8600 9050 50  0001 C CNN
F 3 "" H 8600 9050 50  0001 C CNN
	1    8600 9050
	0    -1   1    0   
$EndComp
$Comp
L VCC #PWR024
U 1 1 5AA1A10C
P 3100 1700
F 0 "#PWR024" H 3100 1550 50  0001 C CNN
F 1 "VCC" H 3100 1850 50  0000 C CNN
F 2 "" H 3100 1700 50  0001 C CNN
F 3 "" H 3100 1700 50  0001 C CNN
	1    3100 1700
	1    0    0    -1  
$EndComp
$Comp
L +3.3V #PWR025
U 1 1 5AA1A1CD
P 3350 1700
F 0 "#PWR025" H 3350 1550 50  0001 C CNN
F 1 "+3.3V" H 3350 1840 50  0000 C CNN
F 2 "" H 3350 1700 50  0001 C CNN
F 3 "" H 3350 1700 50  0001 C CNN
	1    3350 1700
	1    0    0    -1  
$EndComp
$Comp
L GND #PWR026
U 1 1 5AA1A240
P 3850 1700
F 0 "#PWR026" H 3850 1450 50  0001 C CNN
F 1 "GND" H 3850 1550 50  0000 C CNN
F 2 "" H 3850 1700 50  0001 C CNN
F 3 "" H 3850 1700 50  0001 C CNN
	1    3850 1700
	-1   0    0    1   
$EndComp
$Comp
L PWR_FLAG #FLG027
U 1 1 5AA1A2E9
P 3100 1750
F 0 "#FLG027" H 3100 1825 50  0001 C CNN
F 1 "PWR_FLAG" V 3100 2100 50  0000 C CNN
F 2 "" H 3100 1750 50  0001 C CNN
F 3 "" H 3100 1750 50  0001 C CNN
	1    3100 1750
	-1   0    0    1   
$EndComp
$Comp
L PWR_FLAG #FLG028
U 1 1 5AA1A349
P 3350 1750
F 0 "#FLG028" H 3350 1825 50  0001 C CNN
F 1 "PWR_FLAG" V 3350 2100 50  0000 C CNN
F 2 "" H 3350 1750 50  0001 C CNN
F 3 "" H 3350 1750 50  0001 C CNN
	1    3350 1750
	-1   0    0    1   
$EndComp
$Comp
L PWR_FLAG #FLG029
U 1 1 5AA1A3A2
P 3850 1750
F 0 "#FLG029" H 3850 1825 50  0001 C CNN
F 1 "PWR_FLAG" V 3850 2100 50  0000 C CNN
F 2 "" H 3850 1750 50  0001 C CNN
F 3 "" H 3850 1750 50  0001 C CNN
	1    3850 1750
	-1   0    0    1   
$EndComp
Text Label 11000 5850 2    60   ~ 0
OSC2
Text Label 11000 5950 2    60   ~ 0
OSC1
$Comp
L Conn_01x26 J2
U 1 1 5AA23820
P 5750 5950
F 0 "J2" H 5750 7250 50  0000 C CNN
F 1 "Conn_01x26" H 5750 4550 50  0000 C CNN
F 2 "Pin_Headers:Pin_Header_Straight_2x13_Pitch2.54mm" H 5750 5950 50  0001 C CNN
F 3 "" H 5750 5950 50  0001 C CNN
	1    5750 5950
	-1   0    0    -1  
$EndComp
$Comp
L VCC #PWR030
U 1 1 5AA1BC79
P 5200 7250
F 0 "#PWR030" H 5200 7100 50  0001 C CNN
F 1 "VCC" V 5200 7450 50  0000 C CNN
F 2 "" H 5200 7250 50  0001 C CNN
F 3 "" H 5200 7250 50  0001 C CNN
	1    5200 7250
	0    -1   -1   0   
$EndComp
$Comp
L Crystal Y1
U 1 1 5AA241A4
P 1900 5400
F 0 "Y1" H 1900 5550 50  0000 C CNN
F 1 "Crystal" H 1900 5250 50  0000 C CNN
F 2 "Crystals:Crystal_SMD_HC49-SD_HandSoldering" H 1900 5400 50  0001 C CNN
F 3 "" H 1900 5400 50  0001 C CNN
	1    1900 5400
	0    -1   -1   0   
$EndComp
$Comp
L C C12
U 1 1 5AA2447F
P 1600 5700
F 0 "C12" H 1625 5800 50  0000 L CNN
F 1 "22pf" H 1625 5600 50  0000 L CNN
F 2 "Capacitors_SMD:C_0805_HandSoldering" H 1638 5550 50  0001 C CNN
F 3 "" H 1600 5700 50  0001 C CNN
	1    1600 5700
	0    1    1    0   
$EndComp
$Comp
L C C11
U 1 1 5AA2450B
P 1600 5100
F 0 "C11" H 1625 5200 50  0000 L CNN
F 1 "22pF" H 1625 5000 50  0000 L CNN
F 2 "Capacitors_SMD:C_0805_HandSoldering" H 1638 4950 50  0001 C CNN
F 3 "" H 1600 5100 50  0001 C CNN
	1    1600 5100
	0    1    1    0   
$EndComp
$Comp
L R R5
U 1 1 5AA2493B
P 2300 5400
F 0 "R5" V 2380 5400 50  0000 C CNN
F 1 "1M" V 2300 5400 50  0000 C CNN
F 2 "Resistors_SMD:R_0805_HandSoldering" V 2230 5400 50  0001 C CNN
F 3 "" H 2300 5400 50  0001 C CNN
	1    2300 5400
	1    0    0    -1  
$EndComp
$Comp
L GND #PWR031
U 1 1 5AA25281
P 1300 5800
F 0 "#PWR031" H 1300 5550 50  0001 C CNN
F 1 "GND" H 1300 5650 50  0000 C CNN
F 2 "" H 1300 5800 50  0001 C CNN
F 3 "" H 1300 5800 50  0001 C CNN
	1    1300 5800
	1    0    0    -1  
$EndComp
Text Label 2650 5100 2    60   ~ 0
OSC2
Text Label 2650 5700 2    60   ~ 0
OSC1
$Comp
L Conn_01x26 J13
U 1 1 5AA2751B
P 12100 5950
F 0 "J13" H 12100 7250 50  0000 C CNN
F 1 "Conn_01x26" H 12100 4550 50  0000 C CNN
F 2 "Pin_Headers:Pin_Header_Straight_2x13_Pitch2.54mm" H 12100 5950 50  0001 C CNN
F 3 "" H 12100 5950 50  0001 C CNN
	1    12100 5950
	1    0    0    1   
$EndComp
$Comp
L Conn_01x26 J12
U 1 1 5AA2A56B
P 8600 9400
F 0 "J12" H 8600 10700 50  0000 C CNN
F 1 "Conn_01x26" H 8600 8000 50  0000 C CNN
F 2 "Pin_Headers:Pin_Header_Straight_2x13_Pitch2.54mm" H 8600 9400 50  0001 C CNN
F 3 "" H 8600 9400 50  0001 C CNN
	1    8600 9400
	0    -1   1    0   
$EndComp
$Comp
L Conn_01x26 J10
U 1 1 5AA2CF55
P 5050 5950
F 0 "J10" H 5050 7250 50  0000 C CNN
F 1 "Conn_01x26" H 5050 4550 50  0000 C CNN
F 2 "Pin_Headers:Pin_Header_Straight_2x13_Pitch2.54mm" H 5050 5950 50  0001 C CNN
F 3 "" H 5050 5950 50  0001 C CNN
	1    5050 5950
	-1   0    0    -1  
$EndComp
$Comp
L VCC #PWR032
U 1 1 5AA2D0B9
P 4900 7250
F 0 "#PWR032" H 4900 7100 50  0001 C CNN
F 1 "VCC" V 4900 7450 50  0000 C CNN
F 2 "" H 4900 7250 50  0001 C CNN
F 3 "" H 4900 7250 50  0001 C CNN
	1    4900 7250
	0    -1   -1   0   
$EndComp
$Comp
L Conn_01x26 J11
U 1 1 5AA2FE60
P 8600 2550
F 0 "J11" H 8600 3850 50  0000 C CNN
F 1 "Conn_01x26" H 8600 1150 50  0000 C CNN
F 2 "Pin_Headers:Pin_Header_Straight_2x13_Pitch2.54mm" H 8600 2550 50  0001 C CNN
F 3 "" H 8600 2550 50  0001 C CNN
	1    8600 2550
	0    1    -1   0   
$EndComp
$Comp
L HK4100F_DC6V3A Q2
U 1 1 5AA3CAC0
P 15400 1050
F 0 "Q2" H 15350 1350 60  0000 C CNN
F 1 "HK4100F_DC6V3A" H 15550 600 60  0000 C CNN
F 2 "my_library:HK4100F" H 14050 2400 60  0001 C CNN
F 3 "" H 14050 2400 60  0001 C CNN
	1    15400 1050
	1    0    0    -1  
$EndComp
$Comp
L GND #PWR033
U 1 1 5AA3CE93
P 14150 1600
F 0 "#PWR033" H 14150 1350 50  0001 C CNN
F 1 "GND" H 14150 1450 50  0000 C CNN
F 2 "" H 14150 1600 50  0001 C CNN
F 3 "" H 14150 1600 50  0001 C CNN
	1    14150 1600
	1    0    0    -1  
$EndComp
$Comp
L Conn_01x01 J14
U 1 1 5AA3CF2D
P 13250 1250
F 0 "J14" H 13250 1350 50  0000 C CNN
F 1 "Pin" H 13250 1150 50  0000 C CNN
F 2 "Pin_Headers:Pin_Header_Straight_1x01_Pitch2.54mm" H 13250 1250 50  0001 C CNN
F 3 "" H 13250 1250 50  0001 C CNN
	1    13250 1250
	-1   0    0    1   
$EndComp
$Comp
L D R7
U 1 1 5AA3F69C
P 14150 900
F 0 "R7" H 14150 1000 50  0000 C CNN
F 1 "1N4007" H 14150 800 50  0000 C CNN
F 2 "Diodes_SMD:D_SMA_Handsoldering" H 14150 900 50  0001 C CNN
F 3 "" H 14150 900 50  0001 C CNN
	1    14150 900 
	0    1    1    0   
$EndComp
$Comp
L +3.3V #PWR034
U 1 1 5AA413A4
P 14150 750
F 0 "#PWR034" H 14150 600 50  0001 C CNN
F 1 "+3.3V" H 14150 890 50  0000 C CNN
F 2 "" H 14150 750 50  0001 C CNN
F 3 "" H 14150 750 50  0001 C CNN
	1    14150 750 
	1    0    0    -1  
$EndComp
$Comp
L R R6
U 1 1 5AA425C7
P 13650 1250
F 0 "R6" V 13730 1250 50  0000 C CNN
F 1 "1k" V 13650 1250 50  0000 C CNN
F 2 "Resistors_SMD:R_0805_HandSoldering" V 13580 1250 50  0001 C CNN
F 3 "" H 13650 1250 50  0001 C CNN
	1    13650 1250
	0    1    1    0   
$EndComp
$Comp
L Conn_01x02 J16
U 1 1 5AA43590
P 2700 1000
F 0 "J16" H 2700 1100 50  0000 C CNN
F 1 "Power Supply" H 2700 1200 50  0000 C CNN
F 2 "Connectors_Terminal_Blocks:TerminalBlock_bornier-2_P5.08mm" H 2700 1000 50  0001 C CNN
F 3 "" H 2700 1000 50  0001 C CNN
	1    2700 1000
	-1   0    0    1   
$EndComp
$Comp
L VCC #PWR035
U 1 1 5AA43937
P 3100 850
F 0 "#PWR035" H 3100 700 50  0001 C CNN
F 1 "VCC" H 3100 1000 50  0000 C CNN
F 2 "" H 3100 850 50  0001 C CNN
F 3 "" H 3100 850 50  0001 C CNN
	1    3100 850 
	1    0    0    -1  
$EndComp
$Comp
L GND #PWR036
U 1 1 5AA439BD
P 3100 1050
F 0 "#PWR036" H 3100 800 50  0001 C CNN
F 1 "GND" H 3100 900 50  0000 C CNN
F 2 "" H 3100 1050 50  0001 C CNN
F 3 "" H 3100 1050 50  0001 C CNN
	1    3100 1050
	1    0    0    -1  
$EndComp
$Comp
L HK4100F_DC6V3A Q4
U 1 1 5AA4554F
P 15400 2350
F 0 "Q4" H 15350 2650 60  0000 C CNN
F 1 "HK4100F_DC6V3A" H 15550 1900 60  0000 C CNN
F 2 "my_library:HK4100F" H 14050 3700 60  0001 C CNN
F 3 "" H 14050 3700 60  0001 C CNN
	1    15400 2350
	1    0    0    -1  
$EndComp
$Comp
L GND #PWR037
U 1 1 5AA45556
P 14150 2900
F 0 "#PWR037" H 14150 2650 50  0001 C CNN
F 1 "GND" H 14150 2750 50  0000 C CNN
F 2 "" H 14150 2900 50  0001 C CNN
F 3 "" H 14150 2900 50  0001 C CNN
	1    14150 2900
	1    0    0    -1  
$EndComp
$Comp
L Conn_01x01 J17
U 1 1 5AA4555C
P 13250 2550
F 0 "J17" H 13250 2650 50  0000 C CNN
F 1 "Pin" H 13250 2450 50  0000 C CNN
F 2 "Pin_Headers:Pin_Header_Straight_1x01_Pitch2.54mm" H 13250 2550 50  0001 C CNN
F 3 "" H 13250 2550 50  0001 C CNN
	1    13250 2550
	-1   0    0    1   
$EndComp
$Comp
L D R9
U 1 1 5AA45568
P 14150 2200
F 0 "R9" H 14150 2300 50  0000 C CNN
F 1 "1N4007" H 14150 2100 50  0000 C CNN
F 2 "Diodes_SMD:D_SMA_Handsoldering" H 14150 2200 50  0001 C CNN
F 3 "" H 14150 2200 50  0001 C CNN
	1    14150 2200
	0    1    1    0   
$EndComp
$Comp
L +3.3V #PWR038
U 1 1 5AA4557C
P 14150 2050
F 0 "#PWR038" H 14150 1900 50  0001 C CNN
F 1 "+3.3V" H 14150 2190 50  0000 C CNN
F 2 "" H 14150 2050 50  0001 C CNN
F 3 "" H 14150 2050 50  0001 C CNN
	1    14150 2050
	1    0    0    -1  
$EndComp
$Comp
L R R8
U 1 1 5AA45587
P 13650 2550
F 0 "R8" V 13730 2550 50  0000 C CNN
F 1 "1k" V 13650 2550 50  0000 C CNN
F 2 "Resistors_SMD:R_0805_HandSoldering" V 13580 2550 50  0001 C CNN
F 3 "" H 13650 2550 50  0001 C CNN
	1    13650 2550
	0    1    1    0   
$EndComp
$Comp
L HK4100F_DC6V3A Q11
U 1 1 5AA4601D
P 15400 3650
F 0 "Q11" H 15350 3950 60  0000 C CNN
F 1 "HK4100F_DC6V3A" H 15550 3200 60  0000 C CNN
F 2 "my_library:HK4100F" H 14050 5000 60  0001 C CNN
F 3 "" H 14050 5000 60  0001 C CNN
	1    15400 3650
	1    0    0    -1  
$EndComp
$Comp
L GND #PWR039
U 1 1 5AA46024
P 14150 4200
F 0 "#PWR039" H 14150 3950 50  0001 C CNN
F 1 "GND" H 14150 4050 50  0000 C CNN
F 2 "" H 14150 4200 50  0001 C CNN
F 3 "" H 14150 4200 50  0001 C CNN
	1    14150 4200
	1    0    0    -1  
$EndComp
$Comp
L Conn_01x01 J19
U 1 1 5AA4602A
P 13250 3850
F 0 "J19" H 13250 3950 50  0000 C CNN
F 1 "Pin" H 13250 3750 50  0000 C CNN
F 2 "Pin_Headers:Pin_Header_Straight_1x01_Pitch2.54mm" H 13250 3850 50  0001 C CNN
F 3 "" H 13250 3850 50  0001 C CNN
	1    13250 3850
	-1   0    0    1   
$EndComp
$Comp
L D R16
U 1 1 5AA46036
P 14150 3500
F 0 "R16" H 14150 3600 50  0000 C CNN
F 1 "1N4007" H 14150 3400 50  0000 C CNN
F 2 "Diodes_SMD:D_SMA_Handsoldering" H 14150 3500 50  0001 C CNN
F 3 "" H 14150 3500 50  0001 C CNN
	1    14150 3500
	0    1    1    0   
$EndComp
$Comp
L +3.3V #PWR040
U 1 1 5AA4604A
P 14150 3350
F 0 "#PWR040" H 14150 3200 50  0001 C CNN
F 1 "+3.3V" H 14150 3490 50  0000 C CNN
F 2 "" H 14150 3350 50  0001 C CNN
F 3 "" H 14150 3350 50  0001 C CNN
	1    14150 3350
	1    0    0    -1  
$EndComp
$Comp
L R R10
U 1 1 5AA46055
P 13650 3850
F 0 "R10" V 13730 3850 50  0000 C CNN
F 1 "1k" V 13650 3850 50  0000 C CNN
F 2 "Resistors_SMD:R_0805_HandSoldering" V 13580 3850 50  0001 C CNN
F 3 "" H 13650 3850 50  0001 C CNN
	1    13650 3850
	0    1    1    0   
$EndComp
$Comp
L HK4100F_DC6V3A Q12
U 1 1 5AA461A5
P 15400 4950
F 0 "Q12" H 15350 5250 60  0000 C CNN
F 1 "HK4100F_DC6V3A" H 15550 4500 60  0000 C CNN
F 2 "my_library:HK4100F" H 14050 6300 60  0001 C CNN
F 3 "" H 14050 6300 60  0001 C CNN
	1    15400 4950
	1    0    0    -1  
$EndComp
$Comp
L GND #PWR041
U 1 1 5AA461AC
P 14150 5500
F 0 "#PWR041" H 14150 5250 50  0001 C CNN
F 1 "GND" H 14150 5350 50  0000 C CNN
F 2 "" H 14150 5500 50  0001 C CNN
F 3 "" H 14150 5500 50  0001 C CNN
	1    14150 5500
	1    0    0    -1  
$EndComp
$Comp
L Conn_01x01 J20
U 1 1 5AA461B2
P 13250 5150
F 0 "J20" H 13250 5250 50  0000 C CNN
F 1 "Pin" H 13250 5050 50  0000 C CNN
F 2 "Pin_Headers:Pin_Header_Straight_1x01_Pitch2.54mm" H 13250 5150 50  0001 C CNN
F 3 "" H 13250 5150 50  0001 C CNN
	1    13250 5150
	-1   0    0    1   
$EndComp
$Comp
L D R17
U 1 1 5AA461BE
P 14150 4800
F 0 "R17" H 14150 4900 50  0000 C CNN
F 1 "1N4007" H 14150 4700 50  0000 C CNN
F 2 "Diodes_SMD:D_SMA_Handsoldering" H 14150 4800 50  0001 C CNN
F 3 "" H 14150 4800 50  0001 C CNN
	1    14150 4800
	0    1    1    0   
$EndComp
$Comp
L +3.3V #PWR042
U 1 1 5AA461D2
P 14150 4650
F 0 "#PWR042" H 14150 4500 50  0001 C CNN
F 1 "+3.3V" H 14150 4790 50  0000 C CNN
F 2 "" H 14150 4650 50  0001 C CNN
F 3 "" H 14150 4650 50  0001 C CNN
	1    14150 4650
	1    0    0    -1  
$EndComp
$Comp
L R R11
U 1 1 5AA461DD
P 13650 5150
F 0 "R11" V 13730 5150 50  0000 C CNN
F 1 "1k" V 13650 5150 50  0000 C CNN
F 2 "Resistors_SMD:R_0805_HandSoldering" V 13580 5150 50  0001 C CNN
F 3 "" H 13650 5150 50  0001 C CNN
	1    13650 5150
	0    1    1    0   
$EndComp
$Comp
L GND #PWR043
U 1 1 5AA47373
P 14150 6750
F 0 "#PWR043" H 14150 6500 50  0001 C CNN
F 1 "GND" H 14150 6600 50  0000 C CNN
F 2 "" H 14150 6750 50  0001 C CNN
F 3 "" H 14150 6750 50  0001 C CNN
	1    14150 6750
	1    0    0    -1  
$EndComp
$Comp
L Conn_01x01 J21
U 1 1 5AA47379
P 13250 6400
F 0 "J21" H 13250 6500 50  0000 C CNN
F 1 "Pin" H 13250 6300 50  0000 C CNN
F 2 "Pin_Headers:Pin_Header_Straight_1x01_Pitch2.54mm" H 13250 6400 50  0001 C CNN
F 3 "" H 13250 6400 50  0001 C CNN
	1    13250 6400
	-1   0    0    1   
$EndComp
$Comp
L D R18
U 1 1 5AA47385
P 14150 6050
F 0 "R18" H 14150 6150 50  0000 C CNN
F 1 "1N4007" H 14150 5950 50  0000 C CNN
F 2 "Diodes_SMD:D_SMA_Handsoldering" H 14150 6050 50  0001 C CNN
F 3 "" H 14150 6050 50  0001 C CNN
	1    14150 6050
	0    1    1    0   
$EndComp
$Comp
L +3.3V #PWR044
U 1 1 5AA47399
P 14150 5900
F 0 "#PWR044" H 14150 5750 50  0001 C CNN
F 1 "+3.3V" H 14150 6040 50  0000 C CNN
F 2 "" H 14150 5900 50  0001 C CNN
F 3 "" H 14150 5900 50  0001 C CNN
	1    14150 5900
	1    0    0    -1  
$EndComp
$Comp
L R R12
U 1 1 5AA473A4
P 13650 6400
F 0 "R12" V 13730 6400 50  0000 C CNN
F 1 "1k" V 13650 6400 50  0000 C CNN
F 2 "Resistors_SMD:R_0805_HandSoldering" V 13580 6400 50  0001 C CNN
F 3 "" H 13650 6400 50  0001 C CNN
	1    13650 6400
	0    1    1    0   
$EndComp
$Comp
L HK4100F_DC6V3A Q14
U 1 1 5AA473AC
P 15400 7500
F 0 "Q14" H 15350 7800 60  0000 C CNN
F 1 "HK4100F_DC6V3A" H 15550 7050 60  0000 C CNN
F 2 "my_library:HK4100F" H 14050 8850 60  0001 C CNN
F 3 "" H 14050 8850 60  0001 C CNN
	1    15400 7500
	1    0    0    -1  
$EndComp
$Comp
L GND #PWR045
U 1 1 5AA473B3
P 14150 8050
F 0 "#PWR045" H 14150 7800 50  0001 C CNN
F 1 "GND" H 14150 7900 50  0000 C CNN
F 2 "" H 14150 8050 50  0001 C CNN
F 3 "" H 14150 8050 50  0001 C CNN
	1    14150 8050
	1    0    0    -1  
$EndComp
$Comp
L Conn_01x01 J22
U 1 1 5AA473B9
P 13250 7700
F 0 "J22" H 13250 7800 50  0000 C CNN
F 1 "Pin" H 13250 7600 50  0000 C CNN
F 2 "Pin_Headers:Pin_Header_Straight_1x01_Pitch2.54mm" H 13250 7700 50  0001 C CNN
F 3 "" H 13250 7700 50  0001 C CNN
	1    13250 7700
	-1   0    0    1   
$EndComp
$Comp
L D R19
U 1 1 5AA473C5
P 14150 7350
F 0 "R19" H 14150 7450 50  0000 C CNN
F 1 "1N4007" H 14150 7250 50  0000 C CNN
F 2 "Diodes_SMD:D_SMA_Handsoldering" H 14150 7350 50  0001 C CNN
F 3 "" H 14150 7350 50  0001 C CNN
	1    14150 7350
	0    1    1    0   
$EndComp
$Comp
L +3.3V #PWR046
U 1 1 5AA473D9
P 14150 7200
F 0 "#PWR046" H 14150 7050 50  0001 C CNN
F 1 "+3.3V" H 14150 7340 50  0000 C CNN
F 2 "" H 14150 7200 50  0001 C CNN
F 3 "" H 14150 7200 50  0001 C CNN
	1    14150 7200
	1    0    0    -1  
$EndComp
$Comp
L R R13
U 1 1 5AA473E4
P 13650 7700
F 0 "R13" V 13730 7700 50  0000 C CNN
F 1 "1k" V 13650 7700 50  0000 C CNN
F 2 "Resistors_SMD:R_0805_HandSoldering" V 13580 7700 50  0001 C CNN
F 3 "" H 13650 7700 50  0001 C CNN
	1    13650 7700
	0    1    1    0   
$EndComp
$Comp
L MMBT3904 Q1
U 1 1 5AA40599
P 14050 1250
F 0 "Q1" H 14250 1325 50  0000 L CNN
F 1 "MMBT3904" H 14250 1250 50  0000 L CNN
F 2 "TO_SOT_Packages_SMD:SOT-23_Handsoldering" H 14250 1175 50  0001 L CIN
F 3 "" H 14050 1250 50  0001 L CNN
	1    14050 1250
	1    0    0    -1  
$EndComp
$Comp
L MMBT3904 Q3
U 1 1 5AA40997
P 14050 2550
F 0 "Q3" H 14250 2625 50  0000 L CNN
F 1 "MMBT3904" H 14250 2550 50  0000 L CNN
F 2 "TO_SOT_Packages_SMD:SOT-23_Handsoldering" H 14250 2475 50  0001 L CIN
F 3 "" H 14050 2550 50  0001 L CNN
	1    14050 2550
	1    0    0    -1  
$EndComp
$Comp
L MMBT3904 Q5
U 1 1 5AA40EB9
P 14050 3850
F 0 "Q5" H 14250 3925 50  0000 L CNN
F 1 "MMBT3904" H 14250 3850 50  0000 L CNN
F 2 "TO_SOT_Packages_SMD:SOT-23_Handsoldering" H 14250 3775 50  0001 L CIN
F 3 "" H 14050 3850 50  0001 L CNN
	1    14050 3850
	1    0    0    -1  
$EndComp
$Comp
L MMBT3904 Q6
U 1 1 5AA410CF
P 14050 5150
F 0 "Q6" H 14250 5225 50  0000 L CNN
F 1 "MMBT3904" H 14250 5150 50  0000 L CNN
F 2 "TO_SOT_Packages_SMD:SOT-23_Handsoldering" H 14250 5075 50  0001 L CIN
F 3 "" H 14050 5150 50  0001 L CNN
	1    14050 5150
	1    0    0    -1  
$EndComp
$Comp
L MMBT3904 Q7
U 1 1 5AA411FF
P 14050 6400
F 0 "Q7" H 14250 6475 50  0000 L CNN
F 1 "MMBT3904" H 14250 6400 50  0000 L CNN
F 2 "TO_SOT_Packages_SMD:SOT-23_Handsoldering" H 14250 6325 50  0001 L CIN
F 3 "" H 14050 6400 50  0001 L CNN
	1    14050 6400
	1    0    0    -1  
$EndComp
$Comp
L MMBT3904 Q8
U 1 1 5AA41531
P 14050 7700
F 0 "Q8" H 14250 7775 50  0000 L CNN
F 1 "MMBT3904" H 14250 7700 50  0000 L CNN
F 2 "TO_SOT_Packages_SMD:SOT-23_Handsoldering" H 14250 7625 50  0001 L CIN
F 3 "" H 14050 7700 50  0001 L CNN
	1    14050 7700
	1    0    0    -1  
$EndComp
$Comp
L Conn_01x26 J31
U 1 1 5AA41FDD
P 8700 800
F 0 "J31" H 8700 2100 50  0000 C CNN
F 1 "Conn_01x26" H 8700 -600 50  0000 C CNN
F 2 "Pin_Headers:Pin_Header_Straight_2x13_Pitch2.54mm" H 8700 800 50  0001 C CNN
F 3 "" H 8700 800 50  0001 C CNN
	1    8700 800 
	0    1    -1   0   
$EndComp
$Comp
L Conn_01x06 J32
U 1 1 5AA455E8
P 5750 1300
F 0 "J32" H 5750 1600 50  0000 C CNN
F 1 "3V3" H 5750 900 50  0000 C CNN
F 2 "Pin_Headers:Pin_Header_Straight_1x06_Pitch2.54mm" H 5750 1300 50  0001 C CNN
F 3 "" H 5750 1300 50  0001 C CNN
	1    5750 1300
	1    0    0    -1  
$EndComp
$Comp
L Conn_01x06 J33
U 1 1 5AA4570A
P 5750 2150
F 0 "J33" H 5750 2450 50  0000 C CNN
F 1 "GND" H 5750 1750 50  0000 C CNN
F 2 "Pin_Headers:Pin_Header_Straight_1x06_Pitch2.54mm" H 5750 2150 50  0001 C CNN
F 3 "" H 5750 2150 50  0001 C CNN
	1    5750 2150
	1    0    0    -1  
$EndComp
$Comp
L GND #PWR047
U 1 1 5AA45834
P 5450 2550
F 0 "#PWR047" H 5450 2300 50  0001 C CNN
F 1 "GND" H 5450 2400 50  0000 C CNN
F 2 "" H 5450 2550 50  0001 C CNN
F 3 "" H 5450 2550 50  0001 C CNN
	1    5450 2550
	1    0    0    -1  
$EndComp
$Comp
L +3.3V #PWR048
U 1 1 5AA46B28
P 5450 1000
F 0 "#PWR048" H 5450 850 50  0001 C CNN
F 1 "+3.3V" H 5450 1140 50  0000 C CNN
F 2 "" H 5450 1000 50  0001 C CNN
F 3 "" H 5450 1000 50  0001 C CNN
	1    5450 1000
	1    0    0    -1  
$EndComp
$Comp
L +5V #PWR049
U 1 1 5AA4903E
P 3600 1700
F 0 "#PWR049" H 3600 1550 50  0001 C CNN
F 1 "+5V" H 3600 1840 50  0000 C CNN
F 2 "" H 3600 1700 50  0001 C CNN
F 3 "" H 3600 1700 50  0001 C CNN
	1    3600 1700
	1    0    0    -1  
$EndComp
$Comp
L PWR_FLAG #FLG050
U 1 1 5AA4915E
P 3600 1750
F 0 "#FLG050" H 3600 1825 50  0001 C CNN
F 1 "PWR_FLAG" V 3600 2100 50  0000 C CNN
F 2 "" H 3600 1750 50  0001 C CNN
F 3 "" H 3600 1750 50  0001 C CNN
	1    3600 1750
	-1   0    0    1   
$EndComp
$Comp
L Conn_01x02 J34
U 1 1 5AA4BC8C
P 3300 1000
F 0 "J34" H 3300 1100 50  0000 C CNN
F 1 "Power Supply" H 3300 1200 50  0000 C CNN
F 2 "Connectors_Terminal_Blocks:TerminalBlock_bornier-2_P5.08mm" H 3300 1000 50  0001 C CNN
F 3 "" H 3300 1000 50  0001 C CNN
	1    3300 1000
	-1   0    0    1   
$EndComp
$Comp
L GND #PWR051
U 1 1 5AA4BC98
P 3700 1050
F 0 "#PWR051" H 3700 800 50  0001 C CNN
F 1 "GND" H 3700 900 50  0000 C CNN
F 2 "" H 3700 1050 50  0001 C CNN
F 3 "" H 3700 1050 50  0001 C CNN
	1    3700 1050
	1    0    0    -1  
$EndComp
$Comp
L VDC #PWR052
U 1 1 5AA4CE04
P 2900 1650
F 0 "#PWR052" H 2900 1550 50  0001 C CNN
F 1 "VDC" H 2900 1900 50  0000 C CNN
F 2 "" H 2900 1650 50  0001 C CNN
F 3 "" H 2900 1650 50  0001 C CNN
	1    2900 1650
	1    0    0    -1  
$EndComp
$Comp
L PWR_FLAG #FLG053
U 1 1 5AA4D2AE
P 2900 1750
F 0 "#FLG053" H 2900 1825 50  0001 C CNN
F 1 "PWR_FLAG" V 2900 2100 50  0000 C CNN
F 2 "" H 2900 1750 50  0001 C CNN
F 3 "" H 2900 1750 50  0001 C CNN
	1    2900 1750
	-1   0    0    1   
$EndComp
$Comp
L VDC #PWR054
U 1 1 5AA4F1C5
P 3700 850
F 0 "#PWR054" H 3700 750 50  0001 C CNN
F 1 "VDC" H 3700 1100 50  0000 C CNN
F 2 "" H 3700 850 50  0001 C CNN
F 3 "" H 3700 850 50  0001 C CNN
	1    3700 850 
	1    0    0    -1  
$EndComp
$Comp
L TSR1-2433 U3
U 1 1 5AA4F694
P 1750 1950
F 0 "U3" H 1500 2150 60  0000 C CNN
F 1 "TSR1-2433" H 2050 1700 60  0000 C CNN
F 2 "Housings_SIP:SIP3_11.6x8.5mm" V 1750 1950 60  0001 C CNN
F 3 "" H 1750 1950 60  0001 C CNN
	1    1750 1950
	1    0    0    -1  
$EndComp
$Comp
L GND #PWR055
U 1 1 5AA4F6A0
P 1750 2350
F 0 "#PWR055" H 1750 2100 50  0001 C CNN
F 1 "GND" H 1750 2200 50  0000 C CNN
F 2 "" H 1750 2350 50  0001 C CNN
F 3 "" H 1750 2350 50  0001 C CNN
	1    1750 2350
	1    0    0    -1  
$EndComp
$Comp
L L L2
U 1 1 5AA4F6AC
P 1050 1950
F 0 "L2" V 1000 1950 50  0000 C CNN
F 1 "L" V 1125 1950 50  0000 C CNN
F 2 "Inductors_THT:L_Radial_D8.7mm_P5.00mm_Fastron_07HCP" H 1050 1950 50  0001 C CNN
F 3 "" H 1050 1950 50  0001 C CNN
	1    1050 1950
	0    -1   -1   0   
$EndComp
$Comp
L CP1 C14
U 1 1 5AA4F6B2
P 1250 2150
F 0 "C14" H 1275 2250 50  0000 L CNN
F 1 "4.7uF" H 1275 2050 50  0000 L CNN
F 2 "Capacitors_SMD:CP_Elec_5x5.3" H 1250 2150 50  0001 C CNN
F 3 "" H 1250 2150 50  0001 C CNN
	1    1250 2150
	1    0    0    -1  
$EndComp
$Comp
L CP1 C13
U 1 1 5AA4F6B8
P 850 2150
F 0 "C13" H 875 2250 50  0000 L CNN
F 1 "4.7uF" H 875 2050 50  0000 L CNN
F 2 "Capacitors_SMD:CP_Elec_5x5.3" H 850 2150 50  0001 C CNN
F 3 "" H 850 2150 50  0001 C CNN
	1    850  2150
	1    0    0    -1  
$EndComp
$Comp
L GND #PWR056
U 1 1 5AA4F6BE
P 850 2350
F 0 "#PWR056" H 850 2100 50  0001 C CNN
F 1 "GND" H 850 2200 50  0000 C CNN
F 2 "" H 850 2350 50  0001 C CNN
F 3 "" H 850 2350 50  0001 C CNN
	1    850  2350
	1    0    0    -1  
$EndComp
$Comp
L GND #PWR057
U 1 1 5AA4F6C4
P 1250 2350
F 0 "#PWR057" H 1250 2100 50  0001 C CNN
F 1 "GND" H 1250 2200 50  0000 C CNN
F 2 "" H 1250 2350 50  0001 C CNN
F 3 "" H 1250 2350 50  0001 C CNN
	1    1250 2350
	1    0    0    -1  
$EndComp
$Comp
L +5V #PWR058
U 1 1 5AA4F8AD
P 2250 1900
F 0 "#PWR058" H 2250 1750 50  0001 C CNN
F 1 "+5V" H 2250 2040 50  0000 C CNN
F 2 "" H 2250 1900 50  0001 C CNN
F 3 "" H 2250 1900 50  0001 C CNN
	1    2250 1900
	1    0    0    -1  
$EndComp
$Comp
L VDC #PWR059
U 1 1 5AA4F9C9
P 850 1900
F 0 "#PWR059" H 850 1800 50  0001 C CNN
F 1 "VDC" H 850 2150 50  0000 C CNN
F 2 "" H 850 1900 50  0001 C CNN
F 3 "" H 850 1900 50  0001 C CNN
	1    850  1900
	1    0    0    -1  
$EndComp
$Comp
L Conn_01x06 J35
U 1 1 5AA506C2
P 6400 1300
F 0 "J35" H 6400 1600 50  0000 C CNN
F 1 "3V3" H 6400 900 50  0000 C CNN
F 2 "Pin_Headers:Pin_Header_Straight_1x06_Pitch2.54mm" H 6400 1300 50  0001 C CNN
F 3 "" H 6400 1300 50  0001 C CNN
	1    6400 1300
	1    0    0    -1  
$EndComp
$Comp
L +5V #PWR060
U 1 1 5AA507EF
P 6100 1000
F 0 "#PWR060" H 6100 850 50  0001 C CNN
F 1 "+5V" H 6100 1140 50  0000 C CNN
F 2 "" H 6100 1000 50  0001 C CNN
F 3 "" H 6100 1000 50  0001 C CNN
	1    6100 1000
	1    0    0    -1  
$EndComp
$Comp
L Conn_01x06 J36
U 1 1 5AA50C69
P 6400 2150
F 0 "J36" H 6400 2450 50  0000 C CNN
F 1 "GND" H 6400 1750 50  0000 C CNN
F 2 "Pin_Headers:Pin_Header_Straight_1x06_Pitch2.54mm" H 6400 2150 50  0001 C CNN
F 3 "" H 6400 2150 50  0001 C CNN
	1    6400 2150
	1    0    0    -1  
$EndComp
$Comp
L GND #PWR061
U 1 1 5AA50C6F
P 6100 2550
F 0 "#PWR061" H 6100 2300 50  0001 C CNN
F 1 "GND" H 6100 2400 50  0000 C CNN
F 2 "" H 6100 2550 50  0001 C CNN
F 3 "" H 6100 2550 50  0001 C CNN
	1    6100 2550
	1    0    0    -1  
$EndComp
$Comp
L Conn_01x03 J15
U 1 1 5ABF9C43
P 14500 8000
F 0 "J15" H 14500 8200 50  0000 C CNN
F 1 "Conn_01x03" H 14500 7800 50  0000 C CNN
F 2 "Connectors_Terminal_Blocks:TerminalBlock_bornier-3_P5.08mm" H 14500 8000 50  0001 C CNN
F 3 "" H 14500 8000 50  0001 C CNN
	1    14500 8000
	-1   0    0    1   
$EndComp
$Comp
L Conn_01x03 J28
U 1 1 5ABFA660
P 14600 6700
F 0 "J28" H 14600 6900 50  0000 C CNN
F 1 "Conn_01x03" H 14600 6500 50  0000 C CNN
F 2 "Connectors_Terminal_Blocks:TerminalBlock_bornier-3_P5.08mm" H 14600 6700 50  0001 C CNN
F 3 "" H 14600 6700 50  0001 C CNN
	1    14600 6700
	-1   0    0    1   
$EndComp
$Comp
L Conn_01x03 J27
U 1 1 5ABFB0A4
P 14600 5450
F 0 "J27" H 14600 5650 50  0000 C CNN
F 1 "Conn_01x03" H 14600 5250 50  0000 C CNN
F 2 "Connectors_Terminal_Blocks:TerminalBlock_bornier-3_P5.08mm" H 14600 5450 50  0001 C CNN
F 3 "" H 14600 5450 50  0001 C CNN
	1    14600 5450
	-1   0    0    1   
$EndComp
$Comp
L Conn_01x03 J26
U 1 1 5ABFBC08
P 14600 4150
F 0 "J26" H 14600 4350 50  0000 C CNN
F 1 "Conn_01x03" H 14600 3950 50  0000 C CNN
F 2 "Connectors_Terminal_Blocks:TerminalBlock_bornier-3_P5.08mm" H 14600 4150 50  0001 C CNN
F 3 "" H 14600 4150 50  0001 C CNN
	1    14600 4150
	-1   0    0    1   
$EndComp
$Comp
L Conn_01x03 J25
U 1 1 5ABFC5AF
P 14600 2850
F 0 "J25" H 14600 3050 50  0000 C CNN
F 1 "Conn_01x03" H 14600 2650 50  0000 C CNN
F 2 "Connectors_Terminal_Blocks:TerminalBlock_bornier-3_P5.08mm" H 14600 2850 50  0001 C CNN
F 3 "" H 14600 2850 50  0001 C CNN
	1    14600 2850
	-1   0    0    1   
$EndComp
$Comp
L Conn_01x03 J18
U 1 1 5ABFD2C5
P 14600 1550
F 0 "J18" H 14600 1750 50  0000 C CNN
F 1 "Conn_01x03" H 14600 1350 50  0000 C CNN
F 2 "Connectors_Terminal_Blocks:TerminalBlock_bornier-3_P5.08mm" H 14600 1550 50  0001 C CNN
F 3 "" H 14600 1550 50  0001 C CNN
	1    14600 1550
	-1   0    0    1   
$EndComp
$Comp
L HK4100F_DC6V3A Q13
U 1 1 5AA4736C
P 15400 6200
F 0 "Q13" H 15350 6500 60  0000 C CNN
F 1 "HK4100F_DC6V3A" H 15550 5750 60  0000 C CNN
F 2 "my_library:HK4100F" H 14050 7550 60  0001 C CNN
F 3 "" H 14050 7550 60  0001 C CNN
	1    15400 6200
	1    0    0    -1  
$EndComp
$Comp
L GND #PWR062
U 1 1 5AC0FEDE
P 2050 7450
F 0 "#PWR062" H 2050 7200 50  0001 C CNN
F 1 "GND" H 2050 7300 50  0000 C CNN
F 2 "" H 2050 7450 50  0001 C CNN
F 3 "" H 2050 7450 50  0001 C CNN
	1    2050 7450
	1    0    0    -1  
$EndComp
$Comp
L Conn_01x01 J23
U 1 1 5AC0FEE4
P 1150 7100
F 0 "J23" H 1150 7200 50  0000 C CNN
F 1 "Pin" H 1150 7000 50  0000 C CNN
F 2 "Pin_Headers:Pin_Header_Straight_1x01_Pitch2.54mm" H 1150 7100 50  0001 C CNN
F 3 "" H 1150 7100 50  0001 C CNN
	1    1150 7100
	-1   0    0    1   
$EndComp
$Comp
L R R14
U 1 1 5AC0FEFA
P 1550 7100
F 0 "R14" V 1630 7100 50  0000 C CNN
F 1 "1k" V 1550 7100 50  0000 C CNN
F 2 "Resistors_SMD:R_0805_HandSoldering" V 1480 7100 50  0001 C CNN
F 3 "" H 1550 7100 50  0001 C CNN
	1    1550 7100
	0    1    1    0   
$EndComp
$Comp
L MMBT3904 Q9
U 1 1 5AC0FF02
P 1950 7100
F 0 "Q9" H 2150 7175 50  0000 L CNN
F 1 " " H 2150 7100 50  0000 L CNN
F 2 "TO_SOT_Packages_SMD:SOT-23_Handsoldering" H 2150 7025 50  0001 L CIN
F 3 "" H 1950 7100 50  0001 L CNN
	1    1950 7100
	1    0    0    -1  
$EndComp
$Comp
L R R15
U 1 1 5AC1015B
P 2050 6750
F 0 "R15" V 2130 6750 50  0000 C CNN
F 1 "10k" V 2050 6750 50  0000 C CNN
F 2 "Resistors_SMD:R_0805_HandSoldering" V 1980 6750 50  0001 C CNN
F 3 "" H 2050 6750 50  0001 C CNN
	1    2050 6750
	-1   0    0    1   
$EndComp
$Comp
L Conn_01x01 J24
U 1 1 5AC106A8
P 2500 6900
F 0 "J24" H 2500 7000 50  0000 C CNN
F 1 "WS28B12" H 2500 6800 50  0000 C CNN
F 2 "Pin_Headers:Pin_Header_Straight_1x01_Pitch2.54mm" H 2500 6900 50  0001 C CNN
F 3 "" H 2500 6900 50  0001 C CNN
	1    2500 6900
	1    0    0    -1  
$EndComp
$Comp
L VDC #PWR063
U 1 1 5AC1322C
P 2050 6600
F 0 "#PWR063" H 2050 6500 50  0001 C CNN
F 1 "VDC" H 2050 6850 50  0000 C CNN
F 2 "" H 2050 6600 50  0001 C CNN
F 3 "" H 2050 6600 50  0001 C CNN
	1    2050 6600
	1    0    0    -1  
$EndComp
$Comp
L D R20
U 1 1 5ACCEC61
P 15100 1750
F 0 "R20" H 15100 1850 50  0000 C CNN
F 1 "1N4007" H 15100 1650 50  0000 C CNN
F 2 "Diodes_SMD:D_SMA_Handsoldering" H 15100 1750 50  0001 C CNN
F 3 "" H 15100 1750 50  0001 C CNN
	1    15100 1750
	0    -1   -1   0   
$EndComp
$Comp
L D R21
U 1 1 5ACCF582
P 15400 1750
F 0 "R21" H 15400 1850 50  0000 C CNN
F 1 "1N4007" H 15400 1650 50  0000 C CNN
F 2 "Diodes_SMD:D_SMA_Handsoldering" H 15400 1750 50  0001 C CNN
F 3 "" H 15400 1750 50  0001 C CNN
	1    15400 1750
	0    -1   -1   0   
$EndComp
$Comp
L GND #PWR064
U 1 1 5ACCFD6E
P 15100 1900
F 0 "#PWR064" H 15100 1650 50  0001 C CNN
F 1 "GND" H 15100 1750 50  0000 C CNN
F 2 "" H 15100 1900 50  0001 C CNN
F 3 "" H 15100 1900 50  0001 C CNN
	1    15100 1900
	1    0    0    -1  
$EndComp
$Comp
L VCC #PWR065
U 1 1 5ACD0771
P 15400 1900
F 0 "#PWR065" H 15400 1750 50  0001 C CNN
F 1 "VCC" H 15300 2000 50  0000 C CNN
F 2 "" H 15400 1900 50  0001 C CNN
F 3 "" H 15400 1900 50  0001 C CNN
	1    15400 1900
	-1   0    0    1   
$EndComp
$Comp
L D R22
U 1 1 5ACD1732
P 15100 3050
F 0 "R22" H 15100 3150 50  0000 C CNN
F 1 "1N4007" H 15100 2950 50  0000 C CNN
F 2 "Diodes_SMD:D_SMA_Handsoldering" H 15100 3050 50  0001 C CNN
F 3 "" H 15100 3050 50  0001 C CNN
	1    15100 3050
	0    -1   -1   0   
$EndComp
$Comp
L D R23
U 1 1 5ACD1865
P 15400 3050
F 0 "R23" H 15400 3150 50  0000 C CNN
F 1 "1N4007" H 15400 2950 50  0000 C CNN
F 2 "Diodes_SMD:D_SMA_Handsoldering" H 15400 3050 50  0001 C CNN
F 3 "" H 15400 3050 50  0001 C CNN
	1    15400 3050
	0    -1   -1   0   
$EndComp
$Comp
L GND #PWR066
U 1 1 5ACD1993
P 15100 3200
F 0 "#PWR066" H 15100 2950 50  0001 C CNN
F 1 "GND" H 15100 3050 50  0000 C CNN
F 2 "" H 15100 3200 50  0001 C CNN
F 3 "" H 15100 3200 50  0001 C CNN
	1    15100 3200
	1    0    0    -1  
$EndComp
$Comp
L VCC #PWR067
U 1 1 5ACD1AAC
P 15400 3200
F 0 "#PWR067" H 15400 3050 50  0001 C CNN
F 1 "VCC" H 15300 3300 50  0000 C CNN
F 2 "" H 15400 3200 50  0001 C CNN
F 3 "" H 15400 3200 50  0001 C CNN
	1    15400 3200
	-1   0    0    1   
$EndComp
$Comp
L D R24
U 1 1 5ACD307D
P 15100 4350
F 0 "R24" H 15100 4450 50  0000 C CNN
F 1 "1N4007" H 15100 4250 50  0000 C CNN
F 2 "Diodes_SMD:D_SMA_Handsoldering" H 15100 4350 50  0001 C CNN
F 3 "" H 15100 4350 50  0001 C CNN
	1    15100 4350
	0    -1   1    0   
$EndComp
$Comp
L D R28
U 1 1 5ACD3083
P 15400 4350
F 0 "R28" H 15400 4450 50  0000 C CNN
F 1 "1N4007" H 15400 4250 50  0000 C CNN
F 2 "Diodes_SMD:D_SMA_Handsoldering" H 15400 4350 50  0001 C CNN
F 3 "" H 15400 4350 50  0001 C CNN
	1    15400 4350
	0    -1   -1   0   
$EndComp
$Comp
L GND #PWR068
U 1 1 5ACD3089
P 15100 4500
F 0 "#PWR068" H 15100 4250 50  0001 C CNN
F 1 "GND" H 15100 4350 50  0000 C CNN
F 2 "" H 15100 4500 50  0001 C CNN
F 3 "" H 15100 4500 50  0001 C CNN
	1    15100 4500
	1    0    0    -1  
$EndComp
$Comp
L VCC #PWR069
U 1 1 5ACD308F
P 15400 4500
F 0 "#PWR069" H 15400 4350 50  0001 C CNN
F 1 "VCC" H 15300 4600 50  0000 C CNN
F 2 "" H 15400 4500 50  0001 C CNN
F 3 "" H 15400 4500 50  0001 C CNN
	1    15400 4500
	-1   0    0    1   
$EndComp
$Comp
L D R25
U 1 1 5ACD401B
P 15100 5600
F 0 "R25" H 15100 5700 50  0000 C CNN
F 1 "1N4007" H 15100 5500 50  0000 C CNN
F 2 "Diodes_SMD:D_SMA_Handsoldering" H 15100 5600 50  0001 C CNN
F 3 "" H 15100 5600 50  0001 C CNN
	1    15100 5600
	0    -1   1    0   
$EndComp
$Comp
L D R29
U 1 1 5ACD4021
P 15400 5600
F 0 "R29" H 15400 5700 50  0000 C CNN
F 1 "1N4007" H 15400 5500 50  0000 C CNN
F 2 "Diodes_SMD:D_SMA_Handsoldering" H 15400 5600 50  0001 C CNN
F 3 "" H 15400 5600 50  0001 C CNN
	1    15400 5600
	0    -1   -1   0   
$EndComp
$Comp
L GND #PWR070
U 1 1 5ACD4027
P 15100 5750
F 0 "#PWR070" H 15100 5500 50  0001 C CNN
F 1 "GND" H 15100 5600 50  0000 C CNN
F 2 "" H 15100 5750 50  0001 C CNN
F 3 "" H 15100 5750 50  0001 C CNN
	1    15100 5750
	1    0    0    -1  
$EndComp
$Comp
L VCC #PWR071
U 1 1 5ACD402D
P 15400 5750
F 0 "#PWR071" H 15400 5600 50  0001 C CNN
F 1 "VCC" H 15300 5850 50  0000 C CNN
F 2 "" H 15400 5750 50  0001 C CNN
F 3 "" H 15400 5750 50  0001 C CNN
	1    15400 5750
	-1   0    0    1   
$EndComp
$Comp
L D R26
U 1 1 5ACD4872
P 15100 6900
F 0 "R26" H 15100 7000 50  0000 C CNN
F 1 "1N4007" H 15100 6800 50  0000 C CNN
F 2 "Diodes_SMD:D_SMA_Handsoldering" H 15100 6900 50  0001 C CNN
F 3 "" H 15100 6900 50  0001 C CNN
	1    15100 6900
	0    -1   1    0   
$EndComp
$Comp
L D R30
U 1 1 5ACD4878
P 15400 6900
F 0 "R30" H 15400 7000 50  0000 C CNN
F 1 "1N4007" H 15400 6800 50  0000 C CNN
F 2 "Diodes_SMD:D_SMA_Handsoldering" H 15400 6900 50  0001 C CNN
F 3 "" H 15400 6900 50  0001 C CNN
	1    15400 6900
	0    -1   -1   0   
$EndComp
$Comp
L GND #PWR072
U 1 1 5ACD487E
P 15100 7050
F 0 "#PWR072" H 15100 6800 50  0001 C CNN
F 1 "GND" H 15100 6900 50  0000 C CNN
F 2 "" H 15100 7050 50  0001 C CNN
F 3 "" H 15100 7050 50  0001 C CNN
	1    15100 7050
	1    0    0    -1  
$EndComp
$Comp
L VCC #PWR073
U 1 1 5ACD4884
P 15400 7050
F 0 "#PWR073" H 15400 6900 50  0001 C CNN
F 1 "VCC" H 15300 7150 50  0000 C CNN
F 2 "" H 15400 7050 50  0001 C CNN
F 3 "" H 15400 7050 50  0001 C CNN
	1    15400 7050
	-1   0    0    1   
$EndComp
$Comp
L D R27
U 1 1 5ACD521F
P 15100 8200
F 0 "R27" H 15100 8300 50  0000 C CNN
F 1 "1N4007" H 15100 8100 50  0000 C CNN
F 2 "Diodes_SMD:D_SMA_Handsoldering" H 15100 8200 50  0001 C CNN
F 3 "" H 15100 8200 50  0001 C CNN
	1    15100 8200
	0    -1   1    0   
$EndComp
$Comp
L D R31
U 1 1 5ACD5225
P 15400 8200
F 0 "R31" H 15400 8300 50  0000 C CNN
F 1 "1N4007" H 15400 8100 50  0000 C CNN
F 2 "Diodes_SMD:D_SMA_Handsoldering" H 15400 8200 50  0001 C CNN
F 3 "" H 15400 8200 50  0001 C CNN
	1    15400 8200
	0    -1   -1   0   
$EndComp
$Comp
L GND #PWR074
U 1 1 5ACD522B
P 15100 8350
F 0 "#PWR074" H 15100 8100 50  0001 C CNN
F 1 "GND" H 15100 8200 50  0000 C CNN
F 2 "" H 15100 8350 50  0001 C CNN
F 3 "" H 15100 8350 50  0001 C CNN
	1    15100 8350
	1    0    0    -1  
$EndComp
$Comp
L VCC #PWR075
U 1 1 5ACD5231
P 15400 8350
F 0 "#PWR075" H 15400 8200 50  0001 C CNN
F 1 "VCC" H 15300 8450 50  0000 C CNN
F 2 "" H 15400 8350 50  0001 C CNN
F 3 "" H 15400 8350 50  0001 C CNN
	1    15400 8350
	-1   0    0    1   
$EndComp
$Comp
L Conn_01x26 J29
U 1 1 5ACD6446
P 8700 1200
F 0 "J29" H 8700 2500 50  0000 C CNN
F 1 "Conn_01x26" H 8700 -200 50  0000 C CNN
F 2 "Pin_Headers:Pin_Header_Straight_2x13_Pitch2.54mm" H 8700 1200 50  0001 C CNN
F 3 "" H 8700 1200 50  0001 C CNN
	1    8700 1200
	0    1    -1   0   
$EndComp
$Comp
L Conn_01x03 J38
U 1 1 5ACD71F1
P 12600 1350
F 0 "J38" H 12600 1550 50  0000 C CNN
F 1 "DS12B20" H 12600 1150 50  0000 C CNN
F 2 "Connectors_Terminal_Blocks:TerminalBlock_bornier-3_P5.08mm" H 12600 1350 50  0001 C CNN
F 3 "" H 12600 1350 50  0001 C CNN
	1    12600 1350
	1    0    0    -1  
$EndComp
$Comp
L +3.3V #PWR076
U 1 1 5ACD7761
P 12250 900
F 0 "#PWR076" H 12250 750 50  0001 C CNN
F 1 "+3.3V" H 12250 1040 50  0000 C CNN
F 2 "" H 12250 900 50  0001 C CNN
F 3 "" H 12250 900 50  0001 C CNN
	1    12250 900 
	1    0    0    -1  
$EndComp
$Comp
L R R32
U 1 1 5ACD7898
P 12250 1050
F 0 "R32" V 12330 1050 50  0000 C CNN
F 1 "470" V 12250 1050 50  0000 C CNN
F 2 "Resistors_SMD:R_0805_HandSoldering" V 12180 1050 50  0001 C CNN
F 3 "" H 12250 1050 50  0001 C CNN
	1    12250 1050
	1    0    0    -1  
$EndComp
$Comp
L GND #PWR077
U 1 1 5ACD82F3
P 11950 1450
F 0 "#PWR077" H 11950 1200 50  0001 C CNN
F 1 "GND" H 11950 1300 50  0000 C CNN
F 2 "" H 11950 1450 50  0001 C CNN
F 3 "" H 11950 1450 50  0001 C CNN
	1    11950 1450
	1    0    0    -1  
$EndComp
$Comp
L Conn_01x01 J30
U 1 1 5ACD8C90
P 11600 1250
F 0 "J30" H 11600 1350 50  0000 C CNN
F 1 "DS12B20" H 11600 1150 50  0000 C CNN
F 2 "Pin_Headers:Pin_Header_Straight_1x01_Pitch2.54mm" H 11600 1250 50  0001 C CNN
F 3 "" H 11600 1250 50  0001 C CNN
	1    11600 1250
	-1   0    0    1   
$EndComp
$Comp
L Conn_01x03 J39
U 1 1 5ACD960B
P 12600 2350
F 0 "J39" H 12600 2550 50  0000 C CNN
F 1 "DS12B20" H 12600 2150 50  0000 C CNN
F 2 "Connectors_Terminal_Blocks:TerminalBlock_bornier-3_P5.08mm" H 12600 2350 50  0001 C CNN
F 3 "" H 12600 2350 50  0001 C CNN
	1    12600 2350
	1    0    0    -1  
$EndComp
$Comp
L +3.3V #PWR078
U 1 1 5ACD9611
P 12250 1900
F 0 "#PWR078" H 12250 1750 50  0001 C CNN
F 1 "+3.3V" H 12250 2040 50  0000 C CNN
F 2 "" H 12250 1900 50  0001 C CNN
F 3 "" H 12250 1900 50  0001 C CNN
	1    12250 1900
	1    0    0    -1  
$EndComp
$Comp
L R R33
U 1 1 5ACD9617
P 12250 2050
F 0 "R33" V 12330 2050 50  0000 C CNN
F 1 "470" V 12250 2050 50  0000 C CNN
F 2 "Resistors_SMD:R_0805_HandSoldering" V 12180 2050 50  0001 C CNN
F 3 "" H 12250 2050 50  0001 C CNN
	1    12250 2050
	1    0    0    -1  
$EndComp
$Comp
L GND #PWR079
U 1 1 5ACD961F
P 11950 2450
F 0 "#PWR079" H 11950 2200 50  0001 C CNN
F 1 "GND" H 11950 2300 50  0000 C CNN
F 2 "" H 11950 2450 50  0001 C CNN
F 3 "" H 11950 2450 50  0001 C CNN
	1    11950 2450
	1    0    0    -1  
$EndComp
$Comp
L Conn_01x01 J37
U 1 1 5ACD9626
P 11600 2250
F 0 "J37" H 11600 2350 50  0000 C CNN
F 1 "DS12B20" H 11600 2150 50  0000 C CNN
F 2 "Pin_Headers:Pin_Header_Straight_1x01_Pitch2.54mm" H 11600 2250 50  0001 C CNN
F 3 "" H 11600 2250 50  0001 C CNN
	1    11600 2250
	-1   0    0    1   
$EndComp
$Comp
L Conn_01x16 J40
U 1 1 5ACDA246
P 8100 1600
F 0 "J40" H 8100 2400 50  0000 C CNN
F 1 "Conn_01x16" H 8100 700 50  0000 C CNN
F 2 "Pin_Headers:Pin_Header_Straight_2x08_Pitch2.54mm" H 8100 1600 50  0001 C CNN
F 3 "" H 8100 1600 50  0001 C CNN
	1    8100 1600
	0    -1   -1   0   
$EndComp
$Comp
L GND #PWR080
U 1 1 5ACE4B5B
P 10850 1700
F 0 "#PWR080" H 10850 1450 50  0001 C CNN
F 1 "GND" H 10850 1550 50  0000 C CNN
F 2 "" H 10850 1700 50  0001 C CNN
F 3 "" H 10850 1700 50  0001 C CNN
	1    10850 1700
	1    0    0    -1  
$EndComp
$Comp
L R R35
U 1 1 5ACE4B67
P 10400 1500
F 0 "R35" V 10480 1500 50  0000 C CNN
F 1 "1k" V 10400 1500 50  0000 C CNN
F 2 "Resistors_SMD:R_0805_HandSoldering" V 10330 1500 50  0001 C CNN
F 3 "" H 10400 1500 50  0001 C CNN
	1    10400 1500
	0    1    1    0   
$EndComp
$Comp
L MMBT3904 Q15
U 1 1 5ACE4B6D
P 10750 1500
F 0 "Q15" H 10950 1575 50  0000 L CNN
F 1 "MMBT3904" H 10950 1500 50  0000 L CNN
F 2 "TO_SOT_Packages_SMD:SOT-23_Handsoldering" H 10950 1425 50  0001 L CIN
F 3 "" H 10750 1500 50  0001 L CNN
	1    10750 1500
	1    0    0    -1  
$EndComp
Text Label 7450 1900 0    60   ~ 0
A
Text Label 7650 1900 0    60   ~ 0
B
Text Label 7850 1900 0    60   ~ 0
C
Text Label 8050 1900 0    60   ~ 0
D
Text Label 8250 1900 0    60   ~ 0
E
Text Label 8450 1900 0    60   ~ 0
F
Text Label 8650 1900 0    60   ~ 0
G
Text Label 8850 1900 0    60   ~ 0
H
$Comp
L GND #PWR081
U 1 1 5ACEAF98
P 10850 2450
F 0 "#PWR081" H 10850 2200 50  0001 C CNN
F 1 "GND" H 10850 2300 50  0000 C CNN
F 2 "" H 10850 2450 50  0001 C CNN
F 3 "" H 10850 2450 50  0001 C CNN
	1    10850 2450
	1    0    0    -1  
$EndComp
$Comp
L R R36
U 1 1 5ACEAF9E
P 10400 2250
F 0 "R36" V 10480 2250 50  0000 C CNN
F 1 "1k" V 10400 2250 50  0000 C CNN
F 2 "Resistors_SMD:R_0805_HandSoldering" V 10330 2250 50  0001 C CNN
F 3 "" H 10400 2250 50  0001 C CNN
	1    10400 2250
	0    1    1    0   
$EndComp
$Comp
L MMBT3904 Q16
U 1 1 5ACEAFA4
P 10750 2250
F 0 "Q16" H 10950 2325 50  0000 L CNN
F 1 "MMBT3904" H 10950 2250 50  0000 L CNN
F 2 "TO_SOT_Packages_SMD:SOT-23_Handsoldering" H 10950 2175 50  0001 L CIN
F 3 "" H 10750 2250 50  0001 L CNN
	1    10750 2250
	1    0    0    -1  
$EndComp
$Comp
L GND #PWR082
U 1 1 5ACEB104
P 10850 3200
F 0 "#PWR082" H 10850 2950 50  0001 C CNN
F 1 "GND" H 10850 3050 50  0000 C CNN
F 2 "" H 10850 3200 50  0001 C CNN
F 3 "" H 10850 3200 50  0001 C CNN
	1    10850 3200
	1    0    0    -1  
$EndComp
$Comp
L R R37
U 1 1 5ACEB10A
P 10400 3000
F 0 "R37" V 10480 3000 50  0000 C CNN
F 1 "1k" V 10400 3000 50  0000 C CNN
F 2 "Resistors_SMD:R_0805_HandSoldering" V 10330 3000 50  0001 C CNN
F 3 "" H 10400 3000 50  0001 C CNN
	1    10400 3000
	0    1    1    0   
$EndComp
$Comp
L MMBT3904 Q17
U 1 1 5ACEB110
P 10750 3000
F 0 "Q17" H 10950 3075 50  0000 L CNN
F 1 "MMBT3904" H 10950 3000 50  0000 L CNN
F 2 "TO_SOT_Packages_SMD:SOT-23_Handsoldering" H 10950 2925 50  0001 L CIN
F 3 "" H 10750 3000 50  0001 L CNN
	1    10750 3000
	1    0    0    -1  
$EndComp
$Comp
L GND #PWR083
U 1 1 5ACEB81A
P 10850 1000
F 0 "#PWR083" H 10850 750 50  0001 C CNN
F 1 "GND" H 10850 850 50  0000 C CNN
F 2 "" H 10850 1000 50  0001 C CNN
F 3 "" H 10850 1000 50  0001 C CNN
	1    10850 1000
	1    0    0    -1  
$EndComp
$Comp
L R R34
U 1 1 5ACEB820
P 10400 800
F 0 "R34" V 10480 800 50  0000 C CNN
F 1 "1k" V 10400 800 50  0000 C CNN
F 2 "Resistors_SMD:R_0805_HandSoldering" V 10330 800 50  0001 C CNN
F 3 "" H 10400 800 50  0001 C CNN
	1    10400 800 
	0    1    1    0   
$EndComp
$Comp
L MMBT3904 Q10
U 1 1 5ACEB826
P 10750 800
F 0 "Q10" H 10950 875 50  0000 L CNN
F 1 "MMBT3904" H 10950 800 50  0000 L CNN
F 2 "TO_SOT_Packages_SMD:SOT-23_Handsoldering" H 10950 725 50  0001 L CIN
F 3 "" H 10750 800 50  0001 L CNN
	1    10750 800 
	1    0    0    -1  
$EndComp
Text Label 10850 600  0    60   ~ 0
A
Text Label 10250 800  0    60   ~ 0
B
Text Label 10850 1300 0    60   ~ 0
C
Text Label 10250 1500 0    60   ~ 0
D
Text Label 10850 2050 0    60   ~ 0
E
Text Label 10250 2250 0    60   ~ 0
F
Text Label 10850 2800 0    60   ~ 0
G
Text Label 10250 3000 0    60   ~ 0
H
Text Notes 12500 1050 0    60   ~ 0
DS12B20
Text Notes 12450 2050 0    60   ~ 0
DS12B20
Text Notes 14700 650  0    60   ~ 0
Relais
Text Notes 10250 650  0    60   ~ 0
Inverter
Text Notes 1300 4900 0    60   ~ 0
Oszillator
Text Notes 1100 6800 0    60   ~ 0
WS28B12
Text Notes 1650 9300 0    60   ~ 0
PICkit Programmierinterface
Text Notes 2650 600  0    60   ~ 0
Versorgungsspannung
$Comp
L Conn_01x06 J41
U 1 1 5AF6540E
P 5150 1300
F 0 "J41" H 5150 1600 50  0000 C CNN
F 1 "3V3" H 5150 900 50  0000 C CNN
F 2 "Pin_Headers:Pin_Header_Straight_1x06_Pitch2.54mm" H 5150 1300 50  0001 C CNN
F 3 "" H 5150 1300 50  0001 C CNN
	1    5150 1300
	1    0    0    -1  
$EndComp
$Comp
L Conn_01x06 J42
U 1 1 5AF65414
P 5150 2150
F 0 "J42" H 5150 2450 50  0000 C CNN
F 1 "GND" H 5150 1750 50  0000 C CNN
F 2 "Pin_Headers:Pin_Header_Straight_1x06_Pitch2.54mm" H 5150 2150 50  0001 C CNN
F 3 "" H 5150 2150 50  0001 C CNN
	1    5150 2150
	1    0    0    -1  
$EndComp
$Comp
L GND #PWR084
U 1 1 5AF6541A
P 4850 2550
F 0 "#PWR084" H 4850 2300 50  0001 C CNN
F 1 "GND" H 4850 2400 50  0000 C CNN
F 2 "" H 4850 2550 50  0001 C CNN
F 3 "" H 4850 2550 50  0001 C CNN
	1    4850 2550
	1    0    0    -1  
$EndComp
$Comp
L +3.3V #PWR085
U 1 1 5AF65420
P 4850 1000
F 0 "#PWR085" H 4850 850 50  0001 C CNN
F 1 "+3.3V" H 4850 1140 50  0000 C CNN
F 2 "" H 4850 1000 50  0001 C CNN
F 3 "" H 4850 1000 50  0001 C CNN
	1    4850 1000
	1    0    0    -1  
$EndComp
Wire Wire Line
	1350 9150 1500 9150
Wire Wire Line
	1350 9450 1350 9500
Wire Wire Line
	1500 10100 1500 9700
Connection ~ 1350 9500
Wire Wire Line
	1300 9500 1600 9500
Wire Wire Line
	1500 9600 1600 9600
Wire Wire Line
	1500 9700 1600 9700
Wire Wire Line
	1600 9800 1400 9800
Wire Wire Line
	1400 9800 1400 9700
Wire Wire Line
	1400 9700 1300 9700
Wire Wire Line
	1300 9900 1600 9900
Wire Wire Line
	1000 9500 700  9500
Wire Wire Line
	700  9700 1000 9700
Wire Wire Line
	700  9900 1000 9900
Wire Wire Line
	2200 950  2250 950 
Wire Wire Line
	2250 950  2250 900 
Wire Wire Line
	850  1000 850  900 
Wire Wire Line
	900  950  850  950 
Connection ~ 850  950 
Wire Wire Line
	1300 950  1200 950 
Wire Wire Line
	1250 1000 1250 950 
Connection ~ 1250 950 
Wire Wire Line
	850  1300 850  1350
Wire Wire Line
	1250 1300 1250 1350
Wire Wire Line
	1750 1300 1750 1350
Wire Wire Line
	3300 3200 3300 3500
Wire Wire Line
	3300 3800 3300 3850
Wire Wire Line
	1200 3400 1200 3500
Wire Wire Line
	1200 3450 3000 3450
Wire Wire Line
	3000 3450 3000 3500
Connection ~ 1200 3450
Wire Wire Line
	2700 3500 2700 3450
Connection ~ 2700 3450
Wire Wire Line
	2400 3500 2400 3450
Connection ~ 2400 3450
Wire Wire Line
	2100 3500 2100 3450
Connection ~ 2100 3450
Wire Wire Line
	1800 3500 1800 3450
Connection ~ 1800 3450
Wire Wire Line
	1500 3500 1500 3450
Connection ~ 1500 3450
Wire Wire Line
	1200 3800 1200 3850
Wire Wire Line
	1500 3800 1500 3850
Wire Wire Line
	1800 3800 1800 3850
Wire Wire Line
	2100 3800 2100 3850
Wire Wire Line
	2400 3800 2400 3850
Wire Wire Line
	2700 3800 2700 3850
Wire Wire Line
	3000 3800 3000 3850
Wire Wire Line
	10900 4600 10900 6850
Wire Wire Line
	10800 6050 11900 6050
Wire Wire Line
	11050 4550 11050 6750
Connection ~ 11050 5750
Connection ~ 11050 4750
Wire Wire Line
	10800 5750 11900 5750
Wire Wire Line
	10800 4750 11900 4750
Connection ~ 11200 4750
Wire Wire Line
	10800 4850 11900 4850
Connection ~ 11200 4850
Wire Wire Line
	10800 4950 11900 4950
Connection ~ 11200 4950
Wire Wire Line
	10800 5050 11900 5050
Connection ~ 11200 5050
Wire Wire Line
	10800 5150 11900 5150
Connection ~ 11200 5150
Wire Wire Line
	10800 5250 11900 5250
Wire Wire Line
	10800 5350 11900 5350
Wire Wire Line
	10800 5450 11900 5450
Wire Wire Line
	10800 5550 11900 5550
Wire Wire Line
	10800 5650 11900 5650
Connection ~ 10900 6050
Wire Wire Line
	10800 6150 11900 6150
Connection ~ 11200 5250
Connection ~ 11200 5350
Connection ~ 11200 5450
Connection ~ 11200 5550
Connection ~ 11200 5650
Connection ~ 11200 5750
Connection ~ 11200 5850
Connection ~ 11200 5950
Connection ~ 11200 6050
Wire Wire Line
	10800 6250 11900 6250
Wire Wire Line
	10800 6350 11900 6350
Wire Wire Line
	10800 6450 11900 6450
Wire Wire Line
	10800 6550 11900 6550
Wire Wire Line
	10800 6650 11900 6650
Wire Wire Line
	10800 6950 11900 6950
Wire Wire Line
	10800 7050 11900 7050
Wire Wire Line
	10800 7150 11900 7150
Connection ~ 11200 6950
Connection ~ 11200 7050
Connection ~ 11200 7150
Connection ~ 11200 6650
Connection ~ 11200 6550
Connection ~ 11200 6450
Connection ~ 11200 6350
Connection ~ 11200 6250
Connection ~ 11200 6150
Wire Wire Line
	7300 8200 9400 8200
Connection ~ 7800 8200
Connection ~ 8500 8200
Wire Wire Line
	7300 8300 9300 8300
Connection ~ 7900 8300
Connection ~ 8400 8300
Wire Wire Line
	7800 8100 7800 9200
Wire Wire Line
	7900 8100 7900 9200
Wire Wire Line
	8400 8100 8400 9200
Wire Wire Line
	8500 8100 8500 9200
Wire Wire Line
	9400 8100 9400 9200
Wire Wire Line
	9300 8100 9300 9200
Wire Wire Line
	7400 8100 7400 9200
Wire Wire Line
	7500 8100 7500 9200
Wire Wire Line
	7600 8100 7600 9200
Wire Wire Line
	7700 8100 7700 9200
Wire Wire Line
	8000 8100 8000 9200
Wire Wire Line
	8100 8100 8100 9200
Wire Wire Line
	8200 8100 8200 9200
Wire Wire Line
	8300 8100 8300 9200
Wire Wire Line
	8600 8100 8600 9200
Wire Wire Line
	8700 8100 8700 9200
Wire Wire Line
	8800 8100 8800 9200
Wire Wire Line
	8900 8100 8900 9200
Wire Wire Line
	9000 8100 9000 9200
Wire Wire Line
	9100 8100 9100 9200
Wire Wire Line
	9200 8100 9200 9200
Connection ~ 9300 8300
Connection ~ 9400 8200
Wire Wire Line
	9500 8100 9500 9200
Wire Wire Line
	9600 8100 9600 9200
Wire Wire Line
	9700 8100 9700 9200
Wire Wire Line
	9800 8100 9800 9200
Connection ~ 7400 8500
Connection ~ 7500 8500
Connection ~ 7600 8500
Connection ~ 7700 8500
Connection ~ 7800 8500
Connection ~ 7900 8500
Connection ~ 8000 8500
Connection ~ 8100 8500
Connection ~ 8200 8500
Connection ~ 8300 8500
Connection ~ 8400 8500
Connection ~ 8500 8500
Connection ~ 8600 8500
Connection ~ 8700 8500
Connection ~ 8800 8500
Connection ~ 8900 8500
Connection ~ 9000 8500
Connection ~ 9100 8500
Connection ~ 9200 8500
Connection ~ 9300 8500
Connection ~ 9400 8500
Connection ~ 9500 8500
Connection ~ 9600 8500
Connection ~ 9700 8500
Connection ~ 9800 8500
Wire Wire Line
	9900 8500 9900 9200
Wire Wire Line
	6350 4650 6350 6250
Connection ~ 6350 4850
Wire Wire Line
	6200 4650 6200 6150
Connection ~ 6200 6150
Connection ~ 6350 6250
Wire Wire Line
	5250 6150 6450 6150
Wire Wire Line
	5250 6250 6450 6250
Wire Wire Line
	5250 4850 6450 4850
Wire Wire Line
	5250 4750 6450 4750
Wire Wire Line
	5250 4950 6450 4950
Wire Wire Line
	5250 5050 6450 5050
Wire Wire Line
	5250 5150 6450 5150
Wire Wire Line
	5250 5250 6450 5250
Wire Wire Line
	5250 5350 6450 5350
Wire Wire Line
	5250 5550 6450 5550
Wire Wire Line
	5250 5450 6450 5450
Wire Wire Line
	5250 5650 6450 5650
Wire Wire Line
	5250 5750 6450 5750
Wire Wire Line
	5250 5850 6450 5850
Wire Wire Line
	5250 6050 6450 6050
Wire Wire Line
	5250 6350 6450 6350
Wire Wire Line
	5250 6450 6450 6450
Wire Wire Line
	5250 6550 6450 6550
Wire Wire Line
	5250 6650 6450 6650
Wire Wire Line
	5250 6750 6450 6750
Wire Wire Line
	5250 6850 6450 6850
Wire Wire Line
	5250 6950 6450 6950
Connection ~ 5950 4750
Connection ~ 5950 4850
Connection ~ 5950 4950
Connection ~ 5950 5050
Connection ~ 5950 5150
Connection ~ 5950 5250
Connection ~ 5950 5350
Connection ~ 5950 5450
Connection ~ 5950 5550
Connection ~ 5950 5650
Connection ~ 5950 5750
Connection ~ 5950 5850
Connection ~ 5950 6050
Connection ~ 5950 6150
Connection ~ 5950 6250
Connection ~ 5950 6350
Connection ~ 5950 6450
Connection ~ 5950 6550
Connection ~ 5950 6650
Connection ~ 5950 6750
Connection ~ 5950 6850
Connection ~ 5950 6950
Wire Wire Line
	8900 3850 8900 3600
Wire Wire Line
	7200 3750 8800 3750
Wire Wire Line
	8800 2750 8800 3850
Wire Wire Line
	7400 2750 7400 3850
Connection ~ 7400 3450
Wire Wire Line
	7500 2750 7500 3850
Connection ~ 7500 3450
Wire Wire Line
	7600 2750 7600 3850
Connection ~ 7600 3450
Wire Wire Line
	7700 2750 7700 3850
Connection ~ 7700 3450
Wire Wire Line
	7800 2750 7800 3850
Connection ~ 7800 3450
Wire Wire Line
	7900 2750 7900 3850
Connection ~ 7900 3450
Wire Wire Line
	8000 2750 8000 3850
Connection ~ 8000 3450
Wire Wire Line
	8100 2750 8100 3850
Connection ~ 8100 3450
Wire Wire Line
	8200 2750 8200 3850
Connection ~ 8200 3450
Wire Wire Line
	8300 2750 8300 3850
Connection ~ 8300 3450
Wire Wire Line
	8400 2750 8400 3850
Connection ~ 8400 3450
Wire Wire Line
	8500 2750 8500 3850
Connection ~ 8500 3450
Wire Wire Line
	8600 2750 8600 3850
Connection ~ 8600 3450
Wire Wire Line
	8700 2750 8700 3850
Connection ~ 8700 3450
Connection ~ 8800 3450
Connection ~ 8800 3750
Wire Wire Line
	8900 2750 8900 3550
Wire Wire Line
	9000 2750 9000 3850
Connection ~ 9000 3450
Wire Wire Line
	9100 2750 9100 3850
Wire Wire Line
	9200 2750 9200 3850
Wire Wire Line
	9300 2750 9300 3850
Wire Wire Line
	9400 2750 9400 3850
Wire Wire Line
	9500 2750 9500 3850
Wire Wire Line
	9600 2750 9600 3850
Wire Wire Line
	9700 2750 9700 3850
Wire Wire Line
	9800 2750 9800 3850
Connection ~ 9800 3450
Connection ~ 9700 3450
Connection ~ 9600 3450
Connection ~ 9500 3450
Connection ~ 9400 3450
Connection ~ 9300 3450
Connection ~ 9200 3450
Connection ~ 9100 3450
Wire Wire Line
	11050 6750 11900 6750
Connection ~ 11200 6750
Wire Wire Line
	10900 6850 11900 6850
Connection ~ 11200 6850
Wire Wire Line
	7300 2750 7300 3750
Connection ~ 7300 3750
Connection ~ 7300 3450
Connection ~ 8900 3450
Wire Wire Line
	8900 3550 7200 3550
Connection ~ 5600 7050
Connection ~ 5600 7150
Wire Wire Line
	3100 1700 3100 1750
Wire Wire Line
	3350 1700 3350 1750
Wire Wire Line
	3850 1700 3850 1750
Wire Wire Line
	11200 4650 11900 4650
Wire Wire Line
	10800 5850 11000 5850
Wire Wire Line
	10800 5950 11000 5950
Wire Wire Line
	5200 7250 5950 7250
Connection ~ 5600 7250
Wire Wire Line
	11200 5850 11900 5850
Wire Wire Line
	11200 5950 11900 5950
Wire Wire Line
	1750 5100 2650 5100
Wire Wire Line
	2300 5100 2300 5250
Wire Wire Line
	2300 5550 2300 5700
Wire Wire Line
	1750 5700 2650 5700
Wire Wire Line
	1900 5550 1900 5700
Connection ~ 1900 5700
Wire Wire Line
	1900 5250 1900 5100
Connection ~ 1900 5100
Wire Wire Line
	1450 5100 1300 5100
Wire Wire Line
	1300 5100 1300 5800
Wire Wire Line
	1450 5700 1300 5700
Connection ~ 1300 5700
Connection ~ 2300 5100
Connection ~ 2300 5700
Connection ~ 11550 4650
Connection ~ 11550 4750
Connection ~ 11550 4850
Connection ~ 11550 4950
Connection ~ 11550 5050
Connection ~ 11550 5150
Connection ~ 11550 5250
Connection ~ 11550 5350
Connection ~ 11550 5450
Connection ~ 11550 5550
Connection ~ 11550 5650
Connection ~ 11550 5750
Connection ~ 11550 5850
Connection ~ 11550 5950
Connection ~ 11550 6050
Connection ~ 11550 6150
Connection ~ 11550 6250
Connection ~ 11550 6350
Connection ~ 11550 6450
Connection ~ 11550 6550
Connection ~ 11550 6650
Connection ~ 11550 6750
Connection ~ 11550 6850
Connection ~ 11550 6950
Connection ~ 11550 7050
Connection ~ 11550 7150
Connection ~ 7400 8850
Connection ~ 7500 8850
Connection ~ 7600 8850
Connection ~ 7700 8850
Connection ~ 7800 8850
Connection ~ 7900 8850
Connection ~ 8000 8850
Connection ~ 8100 8850
Connection ~ 8200 8850
Connection ~ 8300 8850
Connection ~ 8400 8850
Connection ~ 8500 8850
Connection ~ 8600 8850
Connection ~ 8700 8850
Connection ~ 8800 8850
Connection ~ 8900 8850
Connection ~ 9000 8850
Connection ~ 9100 8850
Connection ~ 9200 8850
Connection ~ 9300 8850
Connection ~ 9400 8850
Connection ~ 9500 8850
Connection ~ 9600 8850
Connection ~ 9700 8850
Connection ~ 9800 8850
Connection ~ 9900 8850
Wire Wire Line
	4900 7250 5250 7250
Connection ~ 5250 7250
Connection ~ 5600 6950
Connection ~ 5600 6850
Connection ~ 5600 6750
Connection ~ 5600 6650
Connection ~ 5600 6550
Connection ~ 5600 6450
Connection ~ 5600 6350
Connection ~ 5600 6250
Connection ~ 5600 6150
Connection ~ 5600 6050
Connection ~ 5600 5950
Connection ~ 5600 5850
Connection ~ 5600 5750
Connection ~ 5600 5650
Connection ~ 5600 5550
Connection ~ 5600 5450
Connection ~ 5600 5350
Connection ~ 5600 5250
Connection ~ 5600 5150
Connection ~ 5600 5050
Connection ~ 5600 4950
Connection ~ 5600 4850
Connection ~ 5600 4750
Connection ~ 7300 3100
Connection ~ 7400 3100
Connection ~ 7500 3100
Connection ~ 7600 3100
Connection ~ 7700 3100
Connection ~ 7800 3100
Connection ~ 7900 3100
Connection ~ 8000 3100
Connection ~ 8100 3100
Connection ~ 8200 3100
Connection ~ 8300 3100
Connection ~ 8400 3100
Connection ~ 8500 3100
Connection ~ 8600 3100
Connection ~ 8700 3100
Connection ~ 8800 3100
Connection ~ 8900 3100
Connection ~ 9000 3100
Connection ~ 9100 3100
Connection ~ 9200 3100
Connection ~ 9300 3100
Connection ~ 9400 3100
Connection ~ 9500 3100
Connection ~ 9600 3100
Connection ~ 9700 3100
Connection ~ 9800 3100
Wire Wire Line
	5250 7050 5950 7050
Wire Wire Line
	5950 7150 5250 7150
Wire Wire Line
	6050 7050 6450 7050
Wire Wire Line
	6450 7150 6050 7150
Wire Wire Line
	5250 5950 5950 5950
Wire Wire Line
	6050 5950 6450 5950
Wire Wire Line
	11200 5850 11200 5950
Wire Wire Line
	14450 850  15100 850 
Wire Wire Line
	14450 850  14450 750 
Wire Wire Line
	14450 950  15100 950 
Wire Wire Line
	14450 950  14450 1050
Wire Wire Line
	14450 1050 14150 1050
Connection ~ 14150 750 
Wire Wire Line
	14450 750  14150 750 
Wire Wire Line
	14150 1600 14150 1450
Connection ~ 15100 1350
Wire Wire Line
	13450 1250 13500 1250
Wire Wire Line
	13800 1250 13850 1250
Wire Wire Line
	3100 850  3100 900 
Wire Wire Line
	3100 900  2900 900 
Wire Wire Line
	2900 1000 3100 1000
Wire Wire Line
	3100 1000 3100 1050
Wire Wire Line
	14450 2150 15100 2150
Wire Wire Line
	14450 2150 14450 2050
Wire Wire Line
	14450 2250 15100 2250
Wire Wire Line
	14450 2250 14450 2350
Wire Wire Line
	14450 2350 14150 2350
Connection ~ 14150 2050
Wire Wire Line
	14450 2050 14150 2050
Wire Wire Line
	14150 2900 14150 2750
Wire Wire Line
	13450 2550 13500 2550
Wire Wire Line
	13800 2550 13850 2550
Wire Wire Line
	14450 3450 15100 3450
Wire Wire Line
	14450 3450 14450 3350
Wire Wire Line
	14450 3550 15100 3550
Wire Wire Line
	14450 3550 14450 3650
Wire Wire Line
	14450 3650 14150 3650
Connection ~ 14150 3350
Wire Wire Line
	14450 3350 14150 3350
Wire Wire Line
	14150 4200 14150 4050
Wire Wire Line
	13450 3850 13500 3850
Wire Wire Line
	13800 3850 13850 3850
Wire Wire Line
	14450 4750 15100 4750
Wire Wire Line
	14450 4750 14450 4650
Wire Wire Line
	14450 4850 14450 4950
Wire Wire Line
	14450 4950 14150 4950
Connection ~ 14150 4650
Wire Wire Line
	14450 4650 14150 4650
Wire Wire Line
	14150 5500 14150 5350
Wire Wire Line
	13450 5150 13500 5150
Wire Wire Line
	13800 5150 13850 5150
Wire Wire Line
	14450 6000 15100 6000
Wire Wire Line
	14450 6000 14450 5900
Wire Wire Line
	14450 6100 15100 6100
Wire Wire Line
	14450 6100 14450 6200
Wire Wire Line
	14450 6200 14150 6200
Connection ~ 14150 5900
Wire Wire Line
	14450 5900 14150 5900
Wire Wire Line
	14150 6750 14150 6600
Wire Wire Line
	13450 6400 13500 6400
Wire Wire Line
	13800 6400 13850 6400
Wire Wire Line
	14450 7300 14450 7200
Wire Wire Line
	14450 7400 14450 7500
Wire Wire Line
	14450 7500 14150 7500
Connection ~ 14150 7200
Wire Wire Line
	14450 7200 14150 7200
Wire Wire Line
	14150 8050 14150 7900
Wire Wire Line
	13450 7700 13500 7700
Wire Wire Line
	13800 7700 13850 7700
Wire Wire Line
	7400 1000 7500 1000
Wire Wire Line
	7600 1000 7700 1000
Wire Wire Line
	7800 1000 7900 1000
Wire Wire Line
	8000 1000 8100 1000
Wire Wire Line
	8200 1000 8300 1000
Wire Wire Line
	8400 1000 8500 1000
Wire Wire Line
	8600 1000 8700 1000
Wire Wire Line
	8800 1000 8900 1000
Wire Wire Line
	9000 1000 9100 1000
Wire Wire Line
	9200 1000 9300 1000
Wire Wire Line
	9400 1000 9500 1000
Wire Wire Line
	9600 1000 9700 1000
Wire Wire Line
	9800 1000 9900 1000
Wire Wire Line
	5450 2550 5450 1950
Wire Wire Line
	5450 1950 5550 1950
Wire Wire Line
	5550 2450 5450 2450
Connection ~ 5450 2450
Wire Wire Line
	5450 2350 5550 2350
Connection ~ 5450 2350
Wire Wire Line
	5550 2250 5450 2250
Connection ~ 5450 2250
Wire Wire Line
	5550 2150 5450 2150
Connection ~ 5450 2150
Wire Wire Line
	5550 2050 5450 2050
Connection ~ 5450 2050
Wire Wire Line
	5450 1000 5450 1600
Wire Wire Line
	5450 1600 5550 1600
Wire Wire Line
	5550 1500 5450 1500
Connection ~ 5450 1500
Wire Wire Line
	5550 1400 5450 1400
Connection ~ 5450 1400
Wire Wire Line
	5550 1300 5450 1300
Connection ~ 5450 1300
Wire Wire Line
	5550 1200 5450 1200
Connection ~ 5450 1200
Wire Wire Line
	5550 1100 5450 1100
Connection ~ 5450 1100
Wire Wire Line
	3600 1700 3600 1750
Wire Wire Line
	3700 850  3700 900 
Wire Wire Line
	3700 900  3500 900 
Wire Wire Line
	3500 1000 3700 1000
Wire Wire Line
	3700 1000 3700 1050
Wire Wire Line
	2900 1650 2900 1750
Wire Wire Line
	2200 1950 2250 1950
Wire Wire Line
	2250 1950 2250 1900
Wire Wire Line
	850  2000 850  1900
Wire Wire Line
	900  1950 850  1950
Connection ~ 850  1950
Wire Wire Line
	1300 1950 1200 1950
Wire Wire Line
	1250 2000 1250 1950
Connection ~ 1250 1950
Wire Wire Line
	850  2300 850  2350
Wire Wire Line
	1250 2300 1250 2350
Wire Wire Line
	1750 2300 1750 2350
Wire Wire Line
	6100 1000 6100 1600
Wire Wire Line
	6100 1600 6200 1600
Wire Wire Line
	6200 1500 6100 1500
Connection ~ 6100 1500
Wire Wire Line
	6200 1400 6100 1400
Connection ~ 6100 1400
Wire Wire Line
	6200 1300 6100 1300
Connection ~ 6100 1300
Wire Wire Line
	6200 1200 6100 1200
Connection ~ 6100 1200
Wire Wire Line
	6200 1100 6100 1100
Connection ~ 6100 1100
Wire Wire Line
	6100 2550 6100 1950
Wire Wire Line
	6100 1950 6200 1950
Wire Wire Line
	6200 2450 6100 2450
Connection ~ 6100 2450
Wire Wire Line
	6100 2350 6200 2350
Connection ~ 6100 2350
Wire Wire Line
	6200 2250 6100 2250
Connection ~ 6100 2250
Wire Wire Line
	6200 2150 6100 2150
Connection ~ 6100 2150
Wire Wire Line
	6200 2050 6100 2050
Connection ~ 6100 2050
Wire Wire Line
	14900 2350 15100 2350
Wire Wire Line
	15000 1150 15100 1150
Wire Wire Line
	14900 1050 15100 1050
Wire Wire Line
	14800 1550 15100 1550
Wire Wire Line
	15100 1250 15100 1600
Wire Wire Line
	15000 1150 15000 1450
Wire Wire Line
	15000 1450 14800 1450
Wire Wire Line
	14900 1650 14800 1650
Wire Wire Line
	14900 1650 14900 1050
Wire Wire Line
	15100 2550 15100 2900
Connection ~ 15100 2650
Wire Wire Line
	15000 3750 15100 3750
Wire Wire Line
	14450 4850 15100 4850
Wire Wire Line
	14450 7300 15100 7300
Wire Wire Line
	14450 7400 15100 7400
Wire Wire Line
	14700 7900 14900 7900
Wire Wire Line
	14700 8000 15400 8000
Wire Wire Line
	14900 7900 14900 7600
Wire Wire Line
	14800 7500 14800 8100
Wire Wire Line
	14800 8100 14700 8100
Wire Wire Line
	14800 6600 15000 6600
Wire Wire Line
	15100 6700 14800 6700
Wire Wire Line
	15000 6600 15000 6300
Wire Wire Line
	14900 6200 14900 6800
Wire Wire Line
	14900 6800 14800 6800
Wire Wire Line
	14800 5350 15000 5350
Wire Wire Line
	14800 5450 15400 5450
Wire Wire Line
	15000 5350 15000 5050
Wire Wire Line
	14900 4950 14900 5550
Wire Wire Line
	14900 5550 14800 5550
Wire Wire Line
	14800 4050 15000 4050
Wire Wire Line
	14800 4150 15400 4150
Wire Wire Line
	15000 4050 15000 3750
Wire Wire Line
	14900 3650 14900 4250
Wire Wire Line
	14900 4250 14800 4250
Wire Wire Line
	14800 2750 15000 2750
Wire Wire Line
	14800 2850 15400 2850
Wire Wire Line
	15000 2750 15000 2450
Wire Wire Line
	14900 2350 14900 2950
Wire Wire Line
	14900 2950 14800 2950
Wire Wire Line
	15000 2450 15100 2450
Wire Wire Line
	14900 3650 15100 3650
Wire Wire Line
	15100 3850 15100 4200
Connection ~ 15100 3950
Wire Wire Line
	14900 4950 15100 4950
Wire Wire Line
	15000 5050 15100 5050
Wire Wire Line
	15100 5150 15100 5450
Connection ~ 15100 5250
Wire Wire Line
	14900 6200 15100 6200
Wire Wire Line
	15000 6300 15100 6300
Wire Wire Line
	15100 6400 15100 6750
Connection ~ 15100 6500
Wire Wire Line
	14800 7500 15100 7500
Wire Wire Line
	14900 7600 15100 7600
Wire Wire Line
	15100 7700 15100 8050
Connection ~ 15100 7800
Wire Wire Line
	2050 7450 2050 7300
Wire Wire Line
	1350 7100 1400 7100
Wire Wire Line
	1700 7100 1750 7100
Wire Wire Line
	2300 6900 2050 6900
Wire Wire Line
	15100 1600 15400 1600
Connection ~ 15100 1550
Connection ~ 15100 2850
Wire Wire Line
	15400 2850 15400 2900
Connection ~ 15100 4150
Wire Wire Line
	15400 4150 15400 4200
Connection ~ 15100 5450
Wire Wire Line
	15100 6750 15400 6750
Connection ~ 15100 6700
Wire Wire Line
	15400 8000 15400 8050
Connection ~ 15100 8000
Wire Wire Line
	7400 1400 7500 1400
Wire Wire Line
	7600 1400 7700 1400
Wire Wire Line
	7800 1400 7900 1400
Wire Wire Line
	8000 1400 8100 1400
Wire Wire Line
	8200 1400 8300 1400
Wire Wire Line
	8400 1400 8500 1400
Wire Wire Line
	8600 1400 8700 1400
Wire Wire Line
	8800 1400 8900 1400
Wire Wire Line
	9000 1400 9100 1400
Wire Wire Line
	9200 1400 9300 1400
Wire Wire Line
	9400 1400 9500 1400
Wire Wire Line
	9600 1400 9700 1400
Wire Wire Line
	9800 1400 9900 1400
Wire Wire Line
	11800 1250 12400 1250
Wire Wire Line
	12400 1450 11950 1450
Wire Wire Line
	11800 2250 12400 2250
Wire Wire Line
	12400 2450 11950 2450
Wire Wire Line
	11950 2350 12400 2350
Wire Wire Line
	7400 1800 7500 1800
Wire Wire Line
	7600 1800 7700 1800
Wire Wire Line
	7800 1800 7900 1800
Wire Wire Line
	8000 1800 8100 1800
Wire Wire Line
	8200 1800 8300 1800
Wire Wire Line
	8400 1800 8500 1800
Wire Wire Line
	8600 1800 8700 1800
Wire Wire Line
	8800 1800 8900 1800
Wire Wire Line
	7450 1900 7450 1800
Connection ~ 7450 1800
Wire Wire Line
	7650 1900 7650 1800
Connection ~ 7650 1800
Wire Wire Line
	7850 1900 7850 1800
Connection ~ 7850 1800
Wire Wire Line
	8050 1900 8050 1800
Connection ~ 8050 1800
Wire Wire Line
	8250 1900 8250 1800
Connection ~ 8250 1800
Wire Wire Line
	8450 1900 8450 1800
Connection ~ 8450 1800
Wire Wire Line
	8650 1900 8650 1800
Connection ~ 8650 1800
Wire Wire Line
	8850 1900 8850 1800
Connection ~ 8850 1800
Wire Wire Line
	11950 1350 12400 1350
Wire Wire Line
	12250 1200 12250 1250
Connection ~ 12250 1250
Wire Wire Line
	11950 1350 11950 900 
Wire Wire Line
	11950 900  12250 900 
Wire Wire Line
	12250 2200 12250 2250
Connection ~ 12250 2250
Wire Wire Line
	11950 2350 11950 1900
Wire Wire Line
	11950 1900 12250 1900
Wire Wire Line
	4850 2550 4850 1950
Wire Wire Line
	4850 1950 4950 1950
Wire Wire Line
	4950 2450 4850 2450
Connection ~ 4850 2450
Wire Wire Line
	4850 2350 4950 2350
Connection ~ 4850 2350
Wire Wire Line
	4950 2250 4850 2250
Connection ~ 4850 2250
Wire Wire Line
	4950 2150 4850 2150
Connection ~ 4850 2150
Wire Wire Line
	4950 2050 4850 2050
Connection ~ 4850 2050
Wire Wire Line
	4850 1000 4850 1600
Wire Wire Line
	4850 1600 4950 1600
Wire Wire Line
	4950 1500 4850 1500
Connection ~ 4850 1500
Wire Wire Line
	4950 1400 4850 1400
Connection ~ 4850 1400
Wire Wire Line
	4950 1300 4850 1300
Connection ~ 4850 1300
Wire Wire Line
	4950 1200 4850 1200
Connection ~ 4850 1200
Wire Wire Line
	4950 1100 4850 1100
Connection ~ 4850 1100
Connection ~ 1500 9150
Wire Wire Line
	1500 9100 1500 9600
$Comp
L +3.3V #PWR?
U 1 1 5AF6D52E
P 1500 9100
F 0 "#PWR?" H 1500 8950 50  0001 C CNN
F 1 "+3.3V" V 1500 9350 50  0000 C CNN
F 2 "" H 1500 9100 50  0001 C CNN
F 3 "" H 1500 9100 50  0001 C CNN
	1    1500 9100
	1    0    0    -1  
$EndComp
$EndSCHEMATC
